﻿Log file open, 10/07/18 21:27:08
LogInit:Display: Running engine for game: GAM495_ArtifactFour
LogPlatformFile: Not using cached read wrapper
LogInit:Display: RandInit(1234269337) SRandInit(1234269337).
LogTaskGraph: Started task graph with 5 named threads and 8 total threads with 1 sets of task threads.
LogStats: Stats thread started at 0.090062
LogPluginManager: Loaded Plugin Paper2D, From C:/Program Files/Epic Games/UE_4.14/Engine/Plugins/2D/Paper2D/Paper2D.uplugin
LogPluginManager: Loaded Plugin LightPropagationVolume, From C:/Program Files/Epic Games/UE_4.14/Engine/Plugins/Blendables/LightPropagationVolume/LightPropagationVolume.uplugin
LogPluginManager: Loaded Plugin BlankPlugin, From C:/Program Files/Epic Games/UE_4.14/Engine/Plugins/Developer/BlankPlugin/BlankPlugin.uplugin
LogPluginManager: Loaded Plugin CodeLiteSourceCodeAccess, From C:/Program Files/Epic Games/UE_4.14/Engine/Plugins/Developer/CodeLiteSourceCodeAccess/CodeLiteSourceCodeAccess.uplugin
LogPluginManager: Loaded Plugin GitSourceControl, From C:/Program Files/Epic Games/UE_4.14/Engine/Plugins/Developer/GitSourceControl/GitSourceControl.uplugin
LogPluginManager: Loaded Plugin KDevelopSourceCodeAccess, From C:/Program Files/Epic Games/UE_4.14/Engine/Plugins/Developer/KDevelopSourceCodeAccess/KDevelopSourceCodeAccess.uplugin
LogPluginManager: Loaded Plugin NullSourceCodeAccess, From C:/Program Files/Epic Games/UE_4.14/Engine/Plugins/Developer/NullSourceCodeAccess/NullSourceCodeAccess.uplugin
LogPluginManager: Loaded Plugin OneSkyLocalizationService, From C:/Program Files/Epic Games/UE_4.14/Engine/Plugins/Developer/OneSkyLocalizationService/OneSkyLocalizationService.uplugin
LogPluginManager: Loaded Plugin PerforceSourceControl, From C:/Program Files/Epic Games/UE_4.14/Engine/Plugins/Developer/PerforceSourceControl/PerforceSourceControl.uplugin
LogPluginManager: Loaded Plugin SubversionSourceControl, From C:/Program Files/Epic Games/UE_4.14/Engine/Plugins/Developer/SubversionSourceControl/SubversionSourceControl.uplugin
LogPluginManager: Loaded Plugin UObjectPlugin, From C:/Program Files/Epic Games/UE_4.14/Engine/Plugins/Developer/UObjectPlugin/UObjectPlugin.uplugin
LogPluginManager: Loaded Plugin VisualStudioSourceCodeAccess, From C:/Program Files/Epic Games/UE_4.14/Engine/Plugins/Developer/VisualStudioSourceCodeAccess/VisualStudioSourceCodeAccess.uplugin
LogPluginManager: Loaded Plugin XCodeSourceCodeAccess, From C:/Program Files/Epic Games/UE_4.14/Engine/Plugins/Developer/XCodeSourceCodeAccess/XCodeSourceCodeAccess.uplugin
LogPluginManager: Loaded Plugin AudioCapture, From C:/Program Files/Epic Games/UE_4.14/Engine/Plugins/Editor/AudioCapture/AudioCapture.uplugin
LogPluginManager: Loaded Plugin EpicSurvey, From C:/Program Files/Epic Games/UE_4.14/Engine/Plugins/Editor/EpicSurvey/EpicSurvey.uplugin
LogPluginManager: Loaded Plugin MacGraphicsSwitching, From C:/Program Files/Epic Games/UE_4.14/Engine/Plugins/Editor/MacGraphicsSwitching/MacGraphicsSwitching.uplugin
LogPluginManager: Loaded Plugin MobileLauncherProfileWizard, From C:/Program Files/Epic Games/UE_4.14/Engine/Plugins/Editor/MobileLauncherProfileWizard/MobileLauncherProfileWizard.uplugin
LogPluginManager: Loaded Plugin PluginBrowser, From C:/Program Files/Epic Games/UE_4.14/Engine/Plugins/Editor/PluginBrowser/PluginBrowser.uplugin
LogPluginManager: Loaded Plugin SpeedTreeImporter, From C:/Program Files/Epic Games/UE_4.14/Engine/Plugins/Editor/SpeedTreeImporter/SpeedTreeImporter.uplugin
LogPluginManager: Loaded Plugin SuperSearchEditor, From C:/Program Files/Epic Games/UE_4.14/Engine/Plugins/Editor/SuperSearchEditor/SuperSearchEditor.uplugin
LogPluginManager: Loaded Plugin AlembicImporter, From C:/Program Files/Epic Games/UE_4.14/Engine/Plugins/Experimental/AlembicImporter/AlembicImporter.uplugin
LogPluginManager: Loaded Plugin BlueprintStats, From C:/Program Files/Epic Games/UE_4.14/Engine/Plugins/Experimental/BlueprintStats/BlueprintStats.uplugin
LogPluginManager: Loaded Plugin CharacterAI, From C:/Program Files/Epic Games/UE_4.14/Engine/Plugins/Experimental/CharacterAI/CharacterAI.uplugin
LogPluginManager: Loaded Plugin CodeEditor, From C:/Program Files/Epic Games/UE_4.14/Engine/Plugins/Experimental/CodeEditor/CodeEditor.uplugin
LogPluginManager: Loaded Plugin CodeView, From C:/Program Files/Epic Games/UE_4.14/Engine/Plugins/Experimental/CodeView/CodeView.uplugin
LogPluginManager: Loaded Plugin HTML5Networking, From C:/Program Files/Epic Games/UE_4.14/Engine/Plugins/Experimental/HTML5Networking/HTML5Networking.uplugin
LogPluginManager: Loaded Plugin OSVR, From C:/Program Files/Epic Games/UE_4.14/Engine/Plugins/Experimental/OSVR/OSVR.uplugin
LogPluginManager: Loaded Plugin Phya, From C:/Program Files/Epic Games/UE_4.14/Engine/Plugins/Experimental/Phya/Phya.uplugin
LogPluginManager: Loaded Plugin SignificanceManager, From C:/Program Files/Epic Games/UE_4.14/Engine/Plugins/Experimental/SignificanceManager/SignificanceManager.uplugin
LogPluginManager: Loaded Plugin SimpleHMD, From C:/Program Files/Epic Games/UE_4.14/Engine/Plugins/Experimental/SimpleHMD/SimpleHMD.uplugin
LogPluginManager: Loaded Plugin StereoPanorama, From C:/Program Files/Epic Games/UE_4.14/Engine/Plugins/Experimental/StereoPanorama/StereoPanorama.uplugin
LogPluginManager: Loaded Plugin StructBox, From C:/Program Files/Epic Games/UE_4.14/Engine/Plugins/Experimental/StructBox/StructBox.uplugin
LogPluginManager: Loaded Plugin AndroidMedia, From C:/Program Files/Epic Games/UE_4.14/Engine/Plugins/Media/AndroidMedia/AndroidMedia.uplugin
LogPluginManager: Loaded Plugin AvfMedia, From C:/Program Files/Epic Games/UE_4.14/Engine/Plugins/Media/AvfMedia/AvfMedia.uplugin
LogPluginManager: Loaded Plugin MediaPlayerEditor, From C:/Program Files/Epic Games/UE_4.14/Engine/Plugins/Media/MediaPlayerEditor/MediaPlayerEditor.uplugin
LogPluginManager: Loaded Plugin WmfMedia, From C:/Program Files/Epic Games/UE_4.14/Engine/Plugins/Media/WmfMedia/WmfMedia.uplugin
LogPluginManager: Loaded Plugin MessagingDebugger, From C:/Program Files/Epic Games/UE_4.14/Engine/Plugins/Messaging/MessagingDebugger/MessagingDebugger.uplugin
LogPluginManager: Loaded Plugin TcpMessaging, From C:/Program Files/Epic Games/UE_4.14/Engine/Plugins/Messaging/TcpMessaging/TcpMessaging.uplugin
LogPluginManager: Loaded Plugin UdpMessaging, From C:/Program Files/Epic Games/UE_4.14/Engine/Plugins/Messaging/UdpMessaging/UdpMessaging.uplugin
LogPluginManager: Loaded Plugin LevelSequenceEditor, From C:/Program Files/Epic Games/UE_4.14/Engine/Plugins/MovieScene/LevelSequenceEditor/LevelSequenceEditor.uplugin
LogPluginManager: Loaded Plugin MatineeToLevelSequence, From C:/Program Files/Epic Games/UE_4.14/Engine/Plugins/MovieScene/MatineeToLevelSequence/MatineeToLevelSequence.uplugin
LogPluginManager: Loaded Plugin NetcodeUnitTest, From C:/Program Files/Epic Games/UE_4.14/Engine/Plugins/NetcodeUnitTest/NetcodeUnitTest/NetcodeUnitTest.uplugin
LogPluginManager: Loaded Plugin NUTUnrealEngine4, From C:/Program Files/Epic Games/UE_4.14/Engine/Plugins/NetcodeUnitTest/NUTUnrealEngine4/NUTUnrealEngine4.uplugin
LogPluginManager: Loaded Plugin OnlineSubsystemGameCircle, From C:/Program Files/Epic Games/UE_4.14/Engine/Plugins/Online/Android/OnlineSubsystemGameCircle/OnlineSubsystemGameCircle.uplugin
LogPluginManager: Loaded Plugin OnlineSubsystemGooglePlay, From C:/Program Files/Epic Games/UE_4.14/Engine/Plugins/Online/Android/OnlineSubsystemGooglePlay/OnlineSubsystemGooglePlay.uplugin
LogPluginManager: Loaded Plugin OnlineSubsystemIOS, From C:/Program Files/Epic Games/UE_4.14/Engine/Plugins/Online/IOS/OnlineSubsystemIOS/OnlineSubsystemIOS.uplugin
LogPluginManager: Loaded Plugin OnlineFramework, From C:/Program Files/Epic Games/UE_4.14/Engine/Plugins/Online/OnlineFramework/OnlineFramework.uplugin
LogPluginManager: Loaded Plugin OnlineSubsystem, From C:/Program Files/Epic Games/UE_4.14/Engine/Plugins/Online/OnlineSubsystem/OnlineSubsystem.uplugin
LogPluginManager: Loaded Plugin OnlineSubsystemAmazon, From C:/Program Files/Epic Games/UE_4.14/Engine/Plugins/Online/OnlineSubsystemAmazon/OnlineSubsystemAmazon.uplugin
LogPluginManager: Loaded Plugin OnlineSubsystemFacebook, From C:/Program Files/Epic Games/UE_4.14/Engine/Plugins/Online/OnlineSubsystemFacebook/OnlineSubsystemFacebook.uplugin
LogPluginManager: Loaded Plugin OnlineSubsystemNull, From C:/Program Files/Epic Games/UE_4.14/Engine/Plugins/Online/OnlineSubsystemNull/OnlineSubsystemNull.uplugin
LogPluginManager: Loaded Plugin OnlineSubsystemOculus, From C:/Program Files/Epic Games/UE_4.14/Engine/Plugins/Online/OnlineSubsystemOculus/OnlineSubsystemOculus.uplugin
LogPluginManager: Loaded Plugin OnlineSubsystemSteam, From C:/Program Files/Epic Games/UE_4.14/Engine/Plugins/Online/OnlineSubsystemSteam/OnlineSubsystemSteam.uplugin
LogPluginManager: Loaded Plugin OnlineSubsystemUtils, From C:/Program Files/Epic Games/UE_4.14/Engine/Plugins/Online/OnlineSubsystemUtils/OnlineSubsystemUtils.uplugin
LogPluginManager: Loaded Plugin IOSTapJoy, From C:/Program Files/Epic Games/UE_4.14/Engine/Plugins/Runtime/Advertising/IOSTapJoy/IOSTapJoy.uplugin
LogPluginManager: Loaded Plugin AnalyticsBlueprintLibrary, From C:/Program Files/Epic Games/UE_4.14/Engine/Plugins/Runtime/Analytics/AnalyticsBlueprintLibrary/AnalyticsBlueprintLibrary.uplugin
LogPluginManager: Loaded Plugin AnalyticsMulticast, From C:/Program Files/Epic Games/UE_4.14/Engine/Plugins/Runtime/Analytics/AnalyticsMulticast/AnalyticsMulticast.uplugin
LogPluginManager: Loaded Plugin Apsalar, From C:/Program Files/Epic Games/UE_4.14/Engine/Plugins/Runtime/Analytics/Apsalar/Apsalar.uplugin
LogPluginManager: Loaded Plugin FileLogging, From C:/Program Files/Epic Games/UE_4.14/Engine/Plugins/Runtime/Analytics/FileLogging/FileLogging.uplugin
LogPluginManager: Loaded Plugin Flurry, From C:/Program Files/Epic Games/UE_4.14/Engine/Plugins/Runtime/Analytics/Flurry/Flurry.uplugin
LogPluginManager: Loaded Plugin AndroidDeviceProfileSelector, From C:/Program Files/Epic Games/UE_4.14/Engine/Plugins/Runtime/AndroidDeviceProfileSelector/AndroidDeviceProfileSelector.uplugin
LogPluginManager: Loaded Plugin AndroidMoviePlayer, From C:/Program Files/Epic Games/UE_4.14/Engine/Plugins/Runtime/AndroidMoviePlayer/AndroidMoviePlayer.uplugin
LogPluginManager: Loaded Plugin AppleMoviePlayer, From C:/Program Files/Epic Games/UE_4.14/Engine/Plugins/Runtime/AppleMoviePlayer/AppleMoviePlayer.uplugin
LogPluginManager: Loaded Plugin ArchVisCharacter, From C:/Program Files/Epic Games/UE_4.14/Engine/Plugins/Runtime/ArchVisCharacter/ArchVisCharacter.uplugin
LogPluginManager: Loaded Plugin CableComponent, From C:/Program Files/Epic Games/UE_4.14/Engine/Plugins/Runtime/CableComponent/CableComponent.uplugin
LogPluginManager: Loaded Plugin CustomMeshComponent, From C:/Program Files/Epic Games/UE_4.14/Engine/Plugins/Runtime/CustomMeshComponent/CustomMeshComponent.uplugin
LogPluginManager: Loaded Plugin ExampleDeviceProfileSelector, From C:/Program Files/Epic Games/UE_4.14/Engine/Plugins/Runtime/ExampleDeviceProfileSelector/ExampleDeviceProfileSelector.uplugin
LogPluginManager: Loaded Plugin GearVR, From C:/Program Files/Epic Games/UE_4.14/Engine/Plugins/Runtime/GearVR/GearVR.uplugin
LogPluginManager: Loaded Plugin GoogleVRController, From C:/Program Files/Epic Games/UE_4.14/Engine/Plugins/Runtime/GoogleVR/GoogleVRController/GoogleVRController.uplugin
LogPluginManager: Loaded Plugin GoogleVRHMD, From C:/Program Files/Epic Games/UE_4.14/Engine/Plugins/Runtime/GoogleVR/GoogleVRHMD/GoogleVRHMD.uplugin
LogPluginManager: Loaded Plugin IOSDeviceProfileSelector, From C:/Program Files/Epic Games/UE_4.14/Engine/Plugins/Runtime/IOSDeviceProfileSelector/IOSDeviceProfileSelector.uplugin
LogPluginManager: Loaded Plugin LeapMotion, From C:/Program Files/Epic Games/UE_4.14/Engine/Plugins/Runtime/LeapMotion/LeapMotion.uplugin
LogPluginManager: Loaded Plugin LinuxDeviceProfileSelector, From C:/Program Files/Epic Games/UE_4.14/Engine/Plugins/Runtime/LinuxDeviceProfileSelector/LinuxDeviceProfileSelector.uplugin
LogPluginManager: Loaded Plugin MIDIDevice, From C:/Program Files/Epic Games/UE_4.14/Engine/Plugins/Runtime/MIDIDevice/MIDIDevice.uplugin
LogPluginManager: Loaded Plugin MobilePatchingUtils, From C:/Program Files/Epic Games/UE_4.14/Engine/Plugins/Runtime/MobilePatchingUtils/MobilePatchingUtils.uplugin
LogPluginManager: Loaded Plugin Ansel, From C:/Program Files/Epic Games/UE_4.14/Engine/Plugins/Runtime/Nvidia/Ansel/Ansel.uplugin
LogPluginManager: Loaded Plugin OculusAudio, From C:/Program Files/Epic Games/UE_4.14/Engine/Plugins/Runtime/OculusAudio/OculusAudio.uplugin
LogPluginManager: Loaded Plugin OculusInput, From C:/Program Files/Epic Games/UE_4.14/Engine/Plugins/Runtime/OculusInput/OculusInput.uplugin
LogPluginManager: Loaded Plugin OculusLibrary, From C:/Program Files/Epic Games/UE_4.14/Engine/Plugins/Runtime/OculusLibrary/OculusLibrary.uplugin
LogPluginManager: Loaded Plugin OculusRift, From C:/Program Files/Epic Games/UE_4.14/Engine/Plugins/Runtime/OculusRift/OculusRift.uplugin
LogPluginManager: Loaded Plugin Oodle, From C:/Program Files/Epic Games/UE_4.14/Engine/Plugins/Runtime/PacketHandlers/CompressionComponents/Oodle/Oodle.uplugin
LogPluginManager: Loaded Plugin ProceduralMeshComponent, From C:/Program Files/Epic Games/UE_4.14/Engine/Plugins/Runtime/ProceduralMeshComponent/ProceduralMeshComponent.uplugin
LogPluginManager: Loaded Plugin SoundMod, From C:/Program Files/Epic Games/UE_4.14/Engine/Plugins/Runtime/SoundMod/SoundMod.uplugin
LogPluginManager: Loaded Plugin SoundVisualizations, From C:/Program Files/Epic Games/UE_4.14/Engine/Plugins/Runtime/SoundVisualizations/SoundVisualizations.uplugin
LogPluginManager: Loaded Plugin SteamController, From C:/Program Files/Epic Games/UE_4.14/Engine/Plugins/Runtime/Steam/SteamController/SteamController.uplugin
LogPluginManager: Loaded Plugin SteamVR, From C:/Program Files/Epic Games/UE_4.14/Engine/Plugins/Runtime/Steam/SteamVR/SteamVR.uplugin
LogPluginManager: Loaded Plugin WebBrowserWidget, From C:/Program Files/Epic Games/UE_4.14/Engine/Plugins/Runtime/WebBrowserWidget/WebBrowserWidget.uplugin
LogPluginManager: Loaded Plugin WindowsDeviceProfileSelector, From C:/Program Files/Epic Games/UE_4.14/Engine/Plugins/Runtime/WindowsDeviceProfileSelector/WindowsDeviceProfileSelector.uplugin
LogPluginManager: Loaded Plugin WindowsMoviePlayer, From C:/Program Files/Epic Games/UE_4.14/Engine/Plugins/Runtime/WindowsMoviePlayer/WindowsMoviePlayer.uplugin
LogPluginManager: Loaded Plugin ScriptPlugin, From C:/Program Files/Epic Games/UE_4.14/Engine/Plugins/ScriptPlugin/ScriptPlugin.uplugin
LogPluginManager: Loaded Plugin SlateRemote, From C:/Program Files/Epic Games/UE_4.14/Engine/Plugins/Slate/SlateRemote/SlateRemote.uplugin
LogPluginManager: Loaded Plugin EditorTests, From C:/Program Files/Epic Games/UE_4.14/Engine/Plugins/Tests/EditorTests/EditorTests.uplugin
LogPluginManager: Loaded Plugin FbxAutomationTestBuilder, From C:/Program Files/Epic Games/UE_4.14/Engine/Plugins/Tests/FbxAutomationTestBuilder/FbxAutomationTestBuilder.uplugin
LogPluginManager: Loaded Plugin FunctionalTestingEditor, From C:/Program Files/Epic Games/UE_4.14/Engine/Plugins/Tests/FunctionalTestingEditor/FunctionalTestingEditor.uplugin
LogPluginManager: Loaded Plugin RuntimeTests, From C:/Program Files/Epic Games/UE_4.14/Engine/Plugins/Tests/RuntimeTests/RuntimeTests.uplugin
LogPluginManager: Loaded Plugin ScreenshotTools, From C:/Program Files/Epic Games/UE_4.14/Engine/Plugins/Tests/ScreenshotTools/ScreenshotTools.uplugin
LogInit: Using libcurl 7.47.1
LogInit:  - built for x86_64-pc-win32
LogInit:  - supports SSL with OpenSSL/1.0.2g
LogInit:  - supports HTTP deflate (compression) using libz 1.2.8
LogInit:  - other features:
LogInit:      CURL_VERSION_SSL
LogInit:      CURL_VERSION_LIBZ
LogInit:      CURL_VERSION_IPV6
LogInit:      CURL_VERSION_ASYNCHDNS
LogInit:      CURL_VERSION_LARGEFILE
LogInit:      CURL_VERSION_IDN
LogInit:  CurlRequestOptions (configurable via config and command line):
LogInit:  - bVerifyPeer = false  - Libcurl will NOT verify peer certificate
LogInit:  - bUseHttpProxy = false  - Libcurl will NOT use HTTP proxy
LogInit:  - bDontReuseConnections = false  - Libcurl will reuse connections
LogInit:  - CertBundlePath = nullptr  - Libcurl will use whatever was configured at build time.
LogInit: Build: ++UE4+Release-4.14-CL-3249277
LogInit: Engine Version: 4.14.3-3249277+++UE4+Release-4.14
LogInit: Compatible Engine Version: 4.14.0-3195953+++UE4+Release-4.14
LogInit: Net CL: 3195953
LogDevObjectVersion: Number of dev versions registered: 13
LogDevObjectVersion:   Dev-Blueprints (B0D832E4-1F89-4F0D-ACCF-7EB736FD4AA2): 7
LogDevObjectVersion:   Dev-Build (E1C64328-A22C-4D53-A36C-8E866417BD8C): 0
LogDevObjectVersion:   Dev-Core (375EC13C-06E4-48FB-B500-84F0262A717E): 1
LogDevObjectVersion:   Dev-Editor (E4B068ED-F494-42E9-A231-DA0B2E46BB41): 8
LogDevObjectVersion:   Dev-Framework (CFFC743F-43B0-4480-9391-14DF171D2073): 17
LogDevObjectVersion:   Dev-Mobile (B02B49B5-BB20-44E9-A304-32B752E40360): 0
LogDevObjectVersion:   Dev-Networking (A4E4105C-59A1-49B5-A7C5-40C4547EDFEE): 0
LogDevObjectVersion:   Dev-Online (39C831C9-5AE6-47DC-9A44-9C173E1C8E7C): 0
LogDevObjectVersion:   Dev-Physics (78F01B33-EBEA-4F98-B9B4-84EACCB95AA2): 0
LogDevObjectVersion:   Dev-Platform (6631380F-2D4D-43E0-8009-CF276956A95A): 0
LogDevObjectVersion:   Dev-Rendering (12F88B9F-8875-4AFC-A67C-D90C383ABD29): 12
LogDevObjectVersion:   Dev-Sequencer (7B5AE74C-D270-4C10-A958-57980B212A5A): 1
LogDevObjectVersion:   Dev-VR (D7296918-1DD6-4BDD-9DE2-64A83CC13884): 0
LogInit: Compiled (64-bit): Jan  6 2017 10:49:43
LogInit: Compiled with Visual C++: 19.00.23026.00
LogInit: Build Configuration: Development
LogInit: Branch Name: ++UE4+Release-4.14
LogInit: Command line:  
LogInit: Base directory: C:/Program Files/Epic Games/UE_4.14/Engine/Binaries/Win64/
LogInit: Installed Engine Build: 1
LogInit: Presizing for max 8388607 objects, including 0 objects not considered by GC, pre-allocating 0 bytes for permanent pool.
LogInit: Object subsystem initialized
[2018.10.08-01.27.08:461][  0]LogInit: Selected Device Profile: [Windows]
[2018.10.08-01.27.08:461][  0]LogInit: Applying CVar settings loaded from the selected device profile: [Windows]
[2018.10.08-01.27.08:473][  0]LogInit: Computer: TYLER-WLAPTOP
[2018.10.08-01.27.08:473][  0]LogInit: User: tyler
[2018.10.08-01.27.08:473][  0]LogInit: CPU Page size=65536, Cores=4
[2018.10.08-01.27.08:473][  0]LogInit: High frequency timer resolution =2.531250 MHz
[2018.10.08-01.27.08:473][  0]LogMemory: Memory total: Physical=15.9GB (16GB approx)
[2018.10.08-01.27.08:473][  0]LogMemory: Platform Memory Stats for Windows
[2018.10.08-01.27.08:473][  0]LogMemory: Process Physical Memory: 264.63 MB used, 264.63 MB peak
[2018.10.08-01.27.08:473][  0]LogMemory: Process Virtual Memory: 262.71 MB used, 262.71 MB peak
[2018.10.08-01.27.08:473][  0]LogMemory: Physical Memory: 6768.77 MB used,  9551.03 MB free, 16319.80 MB total
[2018.10.08-01.27.08:473][  0]LogMemory: Virtual Memory: 4798.09 MB used,  9551.03 MB free, 134217728.00 MB total
[2018.10.08-01.27.08:509][  0]LogTextLocalizationManager: No specific translations for ('en-US') exist, so ('en') translations will be used.
[2018.10.08-01.27.09:239][  0]LogD3D11RHI: D3D11 adapters:
[2018.10.08-01.27.09:291][  0]LogD3D11RHI:    0. 'NVIDIA GeForce GTX 1060' (Feature Level 11_0)
[2018.10.08-01.27.09:291][  0]LogD3D11RHI:       6061/0/8159 MB DedicatedVideo/DedicatedSystem/SharedSystem, Outputs:1, VendorId:0x10de
[2018.10.08-01.27.09:294][  0]LogD3D11RHI:    1. 'Microsoft Basic Render Driver' (Feature Level 11_0)
[2018.10.08-01.27.09:294][  0]LogD3D11RHI:       0/0/8159 MB DedicatedVideo/DedicatedSystem/SharedSystem, Outputs:0, VendorId:0x1414
[2018.10.08-01.27.09:294][  0]LogD3D11RHI: Chosen D3D11 Adapter: 0
[2018.10.08-01.27.09:302][  0]LogD3D11RHI: Creating new Direct3DDevice
[2018.10.08-01.27.09:302][  0]LogD3D11RHI:     GPU DeviceId: 0x1c60 (for the marketing name, search the web for "GPU Device Id")
[2018.10.08-01.27.09:302][  0]LogWindows: EnumDisplayDevices:
[2018.10.08-01.27.09:302][  0]LogWindows:    0. 'NVIDIA GeForce GTX 1060' (P:1 D:1)
[2018.10.08-01.27.09:303][  0]LogWindows:    1. 'NVIDIA GeForce GTX 1060' (P:0 D:0)
[2018.10.08-01.27.09:303][  0]LogWindows:    2. 'NVIDIA GeForce GTX 1060' (P:0 D:0)
[2018.10.08-01.27.09:303][  0]LogWindows:    3. 'NVIDIA GeForce GTX 1060' (P:0 D:0)
[2018.10.08-01.27.09:303][  0]LogWindows: DebugString: GetVideoDriverDetailsInvalid PrimaryIsNotTheChoosenAdapter GetVideoDriverDetailsInvalid PrimaryIsNotTheChoosenAdapter GetVideoDriverDetailsInvalid PrimaryIsNotTheChoosenAdapter GetVideoDriverDetailsInvalid PrimaryIsNotTheChoosenAdapter FoundDriverCount:0 
[2018.10.08-01.27.09:303][  0]LogD3D11RHI:     Adapter Name: NVIDIA GeForce GTX 1060
[2018.10.08-01.27.09:303][  0]LogD3D11RHI:   Driver Version: Unknown (internal:Unknown, unified:Unknown)
[2018.10.08-01.27.09:303][  0]LogD3D11RHI:      Driver Date: Unknown
[2018.10.08-01.27.09:303][  0]LogRHI: Texture pool is 1361 MB (70% of 1945 MB)
[2018.10.08-01.27.09:330][  0]LogD3D11RHI: Async texture creation enabled
[2018.10.08-01.27.09:343][  0]LogD3D11RHI: GPU Timing Frequency: 1000.000000 (Debug: 2 1)
[2018.10.08-01.27.09:344][  0]LogShaderCompilers: Guid format shader working directory is -30 characters bigger than the processId version (../../../../../../Users/tyler/Documents/Unreal Projects/GAM495_ArtifactFour/Intermediate/Shaders/WorkingDirectory/13060/).
[2018.10.08-01.27.09:344][  0]LogShaderCompilers: Cleaned the shader compiler working directory 'C:/Users/tyler/AppData/Local/Temp/UnrealShaderWorkingDir/4AF0C148430EAE7634BDB980CAED3E46/'.
[2018.10.08-01.27.09:344][  0]LogShaderCompilers:Display: Using Local Shader Compiler.
[2018.10.08-01.27.10:613][  0]LogTemp:Display: Loaded TP AllDesktopTargetPlatform
[2018.10.08-01.27.10:691][  0]LogTemp:Display: Loaded TP MacClientTargetPlatform
[2018.10.08-01.27.10:784][  0]LogTemp:Display: Loaded TP MacNoEditorTargetPlatform
[2018.10.08-01.27.10:870][  0]LogTemp:Display: Loaded TP MacServerTargetPlatform
[2018.10.08-01.27.10:954][  0]LogTemp:Display: Loaded TP MacTargetPlatform
[2018.10.08-01.27.11:036][  0]LogTemp:Display: Loaded TP WindowsClientTargetPlatform
[2018.10.08-01.27.11:109][  0]LogTemp:Display: Loaded TP WindowsNoEditorTargetPlatform
[2018.10.08-01.27.11:186][  0]LogTemp:Display: Loaded TP WindowsServerTargetPlatform
[2018.10.08-01.27.11:247][  0]LogTemp:Display: Loaded TP WindowsTargetPlatform
[2018.10.08-01.27.11:325][  0]LogTemp:Display: Loaded TP AndroidTargetPlatform
[2018.10.08-01.27.11:399][  0]LogTemp:Display: Loaded TP Android_ASTCTargetPlatform
[2018.10.08-01.27.11:469][  0]LogTemp:Display: Loaded TP Android_ATCTargetPlatform
[2018.10.08-01.27.11:539][  0]LogTemp:Display: Loaded TP Android_DXTTargetPlatform
[2018.10.08-01.27.11:609][  0]LogTemp:Display: Loaded TP Android_ETC1TargetPlatform
[2018.10.08-01.27.11:677][  0]LogTemp:Display: Loaded TP Android_ETC2TargetPlatform
[2018.10.08-01.27.11:813][  0]LogTemp:Display: Loaded TP Android_MultiTargetPlatform
[2018.10.08-01.27.11:813][  0]LogTemp:Display: Loaded TP Android_PVRTCTargetPlatform
[2018.10.08-01.27.11:866][  0]LogTemp:Display: Loaded TP HTML5TargetPlatform
[2018.10.08-01.27.11:973][  0]LogTemp:Display: Loaded TP IOSTargetPlatform
[2018.10.08-01.27.12:013][  0]LogTemp:Display: Loaded TP TVOSTargetPlatform
[2018.10.08-01.27.12:081][  0]LogTemp:Display: Loaded TP LinuxClientTargetPlatform
[2018.10.08-01.27.12:151][  0]LogTemp:Display: Loaded TP LinuxNoEditorTargetPlatform
[2018.10.08-01.27.12:216][  0]LogTemp:Display: Loaded TP LinuxServerTargetPlatform
[2018.10.08-01.27.12:285][  0]LogTemp:Display: Loaded TP LinuxTargetPlatform
[2018.10.08-01.27.12:285][  0]LogTargetPlatformManager:Display: Building Assets For Windows
[2018.10.08-01.27.12:807][  0]LogDerivedDataCache:Display: Max Cache Size: 512 MB
[2018.10.08-01.27.12:859][  0]LogDerivedDataCache: Loaded boot cache 0.05s 50MB C:/Users/tyler/AppData/Local/UnrealEngine/4.14/DerivedDataCache/Boot.ddc.
[2018.10.08-01.27.12:859][  0]LogDerivedDataCache:Display: Loaded Boot cache: C:/Users/tyler/AppData/Local/UnrealEngine/4.14/DerivedDataCache/Boot.ddc
[2018.10.08-01.27.12:859][  0]LogDerivedDataCache: FDerivedDataBackendGraph:  Pak pak cache file ../../../../../../Users/tyler/Documents/Unreal Projects/GAM495_ArtifactFour/DerivedDataCache/DDC.ddp not found, will not use a pak cache.
[2018.10.08-01.27.12:859][  0]LogDerivedDataCache: Unable to find inner node Pak for hierarchical cache Hierarchy.
[2018.10.08-01.27.12:859][  0]LogDerivedDataCache: FDerivedDataBackendGraph:  CompressedPak pak cache file ../../../../../../Users/tyler/Documents/Unreal Projects/GAM495_ArtifactFour/DerivedDataCache/Compressed.ddp not found, will not use a pak cache.
[2018.10.08-01.27.12:859][  0]LogDerivedDataCache: Unable to find inner node CompressedPak for hierarchical cache Hierarchy.
[2018.10.08-01.27.12:876][  0]LogDerivedDataCache:Display: Pak cache opened for reading ../../../Engine/DerivedDataCache/Compressed.ddp.
[2018.10.08-01.27.12:889][  0]LogDerivedDataCache: Using Local data cache path C:/Users/tyler/AppData/Local/UnrealEngine/Common/DerivedDataCache: Writable
[2018.10.08-01.27.13:129][  0]LogInit: Selected Device Profile: [Windows]
[2018.10.08-01.27.13:131][  0]LogContentStreaming: Texture pool size is 0.00 MB
[2018.10.08-01.27.13:385][  0]LogMeshUtilities: Using QuadricMeshReduction for automatic static mesh reduction
[2018.10.08-01.27.13:448][  0]LogSimplygon: Simplygon DLL not present - disabling.
[2018.10.08-01.27.13:517][  0]LogMeshUtilities: Using SimplygonSwarm for distributed automatic mesh merging
[2018.10.08-01.27.13:517][  0]LogMeshUtilities: No automatic skeletal mesh reduction module available
[2018.10.08-01.27.13:517][  0]LogMeshUtilities: No automatic mesh merging module available
[2018.10.08-01.27.14:155][  0]LogNetVersion: GetLocalNetworkVersion: CL: 3195953, ProjectName: gam495_artifactfour, ProjectVersion: , EngineNetworkVersion: 2, GameNetworkVersion: 0, NetworkChecksum: 83439938
[2018.10.08-01.27.14:220][  0]LogAssetRegistry: FAssetRegistry took 0.0225 seconds to start up
[2018.10.08-01.27.14:300][  0]LogPackageLocalizationCache: Processed 3 localized package path(s) for 2 prioritized culture(s) in 0.047071 seconds
[2018.10.08-01.27.14:307][  0]LogUObjectArray: 31946 objects as part of root set at end of initial load.
[2018.10.08-01.27.14:307][  0]LogUObjectAllocator: 6935840 out of 0 bytes used by permanent object pool.
[2018.10.08-01.27.14:307][  0]LogUObjectArray: CloseDisregardForGC: 0/0 objects in disregard for GC pool
[2018.10.08-01.27.14:382][  0]LogInit: WinSock: version 1.1 (2.2), MaxSocks=32767, MaxUdp=65467
[2018.10.08-01.27.15:419][  0]LogSlate: Using Freetype 2.6.0
[2018.10.08-01.27.15:419][  0]LogSlate: SlateFontCache - WITH_FREETYPE: 1, WITH_HARFBUZZ: 1
[2018.10.08-01.27.15:419][  0]LogSlate: SlateFontCache - WITH_FREETYPE: 1, WITH_HARFBUZZ: 1
[2018.10.08-01.27.16:490][  0]LogTcpMessaging: Initializing TcpMessaging bridge
[2018.10.08-01.27.16:542][  0]LogUdpMessaging: Initializing bridge on interface 0.0.0.0:0 to multicast group 230.0.0.1:6666.
[2018.10.08-01.27.16:931][  0]LogMaterial: Uniform references updated for custom material expression Custom.
[2018.10.08-01.27.17:435][  0]SourceControl: Info Source control is disabled
[2018.10.08-01.27.17:506][  0]SourceControl: Info Source control is disabled
[2018.10.08-01.27.17:575][  0]SourceControl: Info Source control is disabled
[2018.10.08-01.27.17:641][  0]SourceControl: Info Source control is disabled
[2018.10.08-01.27.19:358][  0]LogEngine: Initializing Engine...
[2018.10.08-01.27.19:359][  0]LogHMD: Failed to initialize OpenVR with code 110
[2018.10.08-01.27.19:649][  0]LogAIModule: Creating AISystem for world Untitled
[2018.10.08-01.27.19:659][  0]LogInit: XAudio2 using 'Speakers (Realtek High Definition Audio)' : 2 channels at 48 kHz using 32 bits per sample (channel mask 0x3)
[2018.10.08-01.27.19:689][  0]LogInit: FAudioDevice initialized.
[2018.10.08-01.27.19:721][  0]LogDerivedDataCache: Saved boot cache 0.03s 50MB C:/Users/tyler/AppData/Local/UnrealEngine/4.14/DerivedDataCache/Boot.ddc.
[2018.10.08-01.27.19:730][  0]LogInit: Texture streaming: Enabled
[2018.10.08-01.27.19:959][  0]LogInit: Transaction tracking system initialized
[2018.10.08-01.27.20:413][  0]BlueprintLog: New page: Editor Load
[2018.10.08-01.27.21:579][  0]LocalizationService: Info Localization service is disabled
[2018.10.08-01.27.22:463][  0]LogConsoleResponse:Display: 
[2018.10.08-01.27.22:627][  0]LogCook:Display: Max memory allowance for cook 16384mb min free memory 0mb
[2018.10.08-01.27.22:627][  0]LogCook:Display: Mobile HDR setting 1
[2018.10.08-01.27.23:532][  0]LogFileCache: Scanning file cache for directory 'C:/Users/tyler/Documents/Unreal Projects/GAM495_ArtifactFour/Content/' took 0.02s
[2018.10.08-01.27.23:925][  0]SourceControl: Info Source control is disabled
[2018.10.08-01.27.23:925][  0]Cmd: MAP LOAD FILE="../../../../../../Users/tyler/Documents/Unreal Projects/GAM495_ArtifactFour/Content/TopDownBP/Maps/TopDownExampleMap.umap" TEMPLATE=0 SHOWPROGRESS=1 FEATURELEVEL=3
[2018.10.08-01.27.23:925][  0]LightingResults: New page: Lighting Build
[2018.10.08-01.27.23:979][  0]MapCheck: New page: Map Check
[2018.10.08-01.27.23:979][  0]LightingResults: New page: Lighting Build
[2018.10.08-01.27.24:481][  0]LogAIModule: Creating AISystem for world TopDownExampleMap
[2018.10.08-01.27.24:483][  0]LogActorComponent: RegisterComponentWithWorld: (/Game/TopDownBP/Maps/TopDownExampleMap.TopDownExampleMap:PersistentLevel.WorldInfo_0.StaticMeshComponent0) Trying to register component with IsPendingKill() == true. Aborting.
[2018.10.08-01.27.24:498][  0]LogEditorServer: Finished looking for orphan Actors (0.000 secs)
[2018.10.08-01.27.24:499][  0]Cmd: MAP CHECKDEP NOCLEARLOG
[2018.10.08-01.27.24:573][  0]MapCheck: Info Map check complete: 0 Error(s), 0 Warning(s), took 74.799ms to complete.
[2018.10.08-01.27.24:573][  0]LogFileHelpers: Loading map 'TopDownExampleMap' took 0.649
[2018.10.08-01.27.24:720][  0]LogCollectionManager: Loaded 0 collections in 0.002170 seconds
[2018.10.08-01.27.24:820][  0]LogFileCache: Scanning file cache for directory 'C:/Users/tyler/Documents/Unreal Projects/GAM495_ArtifactFour/Saved/Collections/' took 0.01s
[2018.10.08-01.27.24:820][  0]LogFileCache: Scanning file cache for directory 'C:/Users/tyler/Documents/Unreal Projects/GAM495_ArtifactFour/Content/Developers/tyler/Collections/' took 0.01s
[2018.10.08-01.27.24:820][  0]LogFileCache: Scanning file cache for directory 'C:/Users/tyler/Documents/Unreal Projects/GAM495_ArtifactFour/Content/Collections/' took 0.01s
[2018.10.08-01.27.24:820][  0]LogCollectionManager: Rebuilt the GUID cache for 0 collections in 0.000002 seconds
[2018.10.08-01.27.24:829][  0]LogContentBrowser: Native class hierarchy populated in 0.0085 seconds. Added 2190 classes and 428 folders.
[2018.10.08-01.27.24:884][  0]LogStats: UGameplayTagsManager::ConstructGameplayTagTree: Construct from data asset -  0.000 s
[2018.10.08-01.27.24:884][  0]LogStats: UGameplayTagsManager::ConstructGameplayTagTree: GameplayTagTreeChangedEvent.Broadcast -  0.000 s
[2018.10.08-01.27.24:885][  0]LogContentBrowser: Native class hierarchy updated for 'GameplayTags' in 0.0008 seconds. Added 13 classes and 0 folders.
[2018.10.08-01.27.24:964][  0]LogContentBrowser: Native class hierarchy updated for 'WidgetCarousel' in 0.0008 seconds. Added 0 classes and 0 folders.
[2018.10.08-01.27.25:032][  0]LogContentBrowser: Native class hierarchy updated for 'AddContentDialog' in 0.0005 seconds. Added 0 classes and 0 folders.
[2018.10.08-01.27.25:089][  0]LogContentBrowser: Native class hierarchy updated for 'SceneOutliner' in 0.0004 seconds. Added 1 classes and 2 folders.
[2018.10.08-01.27.25:184][  0]LogCrashTracker: Crashtracker disabled due to settings.
[2018.10.08-01.27.25:192][  0]LogUObjectGlobals:Warning: Failed to find object 'Class None.'
[2018.10.08-01.27.25:271][  0]LogContentBrowser: Native class hierarchy updated for 'HierarchicalLODOutliner' in 0.0005 seconds. Added 1 classes and 2 folders.
[2018.10.08-01.27.25:271][  0]LogLoad: (Engine Initialization) Total time: 18.69 seconds
[2018.10.08-01.27.25:271][  0]LogLoad: (Engine Initialization) Total Blueprint compile time: 0.21 seconds
[2018.10.08-01.27.25:271][  0]LogExternalProfiler: Found external profiler: VSPerf
[2018.10.08-01.27.25:271][  0]LogExternalProfiler: Using external profiler: VSPerf
[2018.10.08-01.27.25:611][  0]LogOcInput: OculusInput pre-init called
[2018.10.08-01.27.25:641][  0]LogAssetRegistry: Asset discovery search completed in 11.4440 seconds
[2018.10.08-01.27.25:641][  0]LogCollectionManager: Rebuilt the object cache for 0 collections in 0.000000 seconds (found 0 objects)
[2018.10.08-01.27.25:641][  0]LogCollectionManager: Fixed up redirectors for 0 collections in 0.000015 seconds (updated 0 objects)
[2018.10.08-01.27.25:645][  0]LogContentStreaming: Texture pool size now 1000 MB
[2018.10.08-01.27.25:823][  0]LogRenderer: Reallocating scene render targets to support 1208x600 NumSamples 1 (Frame:2).
[2018.10.08-01.27.25:945][  1]LogFileCache: Retrieving MD5 hashes for directory 'C:/Users/tyler/Documents/Unreal Projects/GAM495_ArtifactFour/Content/' took 0.32s
[2018.10.08-01.27.47:053][241]LogContentBrowser: Native class hierarchy updated for 'BlueprintGraph' in 0.0008 seconds. Added 111 classes and 0 folders.
[2018.10.08-01.30.10:177][791]AssetReimport: New page: Outstanding source content changes 5:30:10 PM
[2018.10.08-01.30.10:178][791]LogFactory: FactoryCreateFile: Texture with ReimportTextureFactory (0 0 C:/Users/tyler/Documents/Unreal Projects/GAM495_ArtifactFour/Content/Images/LockedTowerInvert.png)
[2018.10.08-01.30.10:241][792]Cmd: OBJ SAVEPACKAGE PACKAGE="/Game/Images/LockedTowerInvert" FILE="../../../../../../Users/tyler/Documents/Unreal Projects/GAM495_ArtifactFour/Content/Images/LockedTowerInvert.uasset" SILENT=true
[2018.10.08-01.30.10:249][792]LogSavePackage: Save=4.68ms
[2018.10.08-01.30.10:249][792]LogSavePackage: Moving '../../../../../../Users/tyler/Documents/Unreal Projects/GAM495_ArtifactFour/Saved/LockedTowerInvert9E8FE39E47EEF8538FA58CA9753CE381.tmp' to '../../../../../../Users/tyler/Documents/Unreal Projects/GAM495_ArtifactFour/Content/Images/LockedTowerInvert.uasset'
[2018.10.08-01.30.10:255][792]LogSavePackage:Display: Finished SavePackage ../../../../../../Users/tyler/Documents/Unreal Projects/GAM495_ArtifactFour/Content/Images/LockedTowerInvert.uasset
[2018.10.08-01.30.13:434][925]AssetReimport: Info Importing new asset /Game/Images/LockedTowerInvert.
[2018.10.08-01.35.28:795][915]AssetReimport: New page: Outstanding source content changes 5:35:28 PM
[2018.10.08-01.35.28:796][915]LogEditorFactories: Performing atomic reimport of [C:/Users/tyler/Documents/Unreal Projects/GAM495_ArtifactFour/Content/Images/LockedTowerInvert.png]
[2018.10.08-01.35.28:796][915]LogFactory: FactoryCreateFile: Texture2D with ReimportTextureFactory (0 0 C:/Users/tyler/Documents/Unreal Projects/GAM495_ArtifactFour/Content/Images/LockedTowerInvert.png)
[2018.10.08-01.35.28:806][915]LogEditorFactories: -- imported successfully
[2018.10.08-01.35.28:850][916]Cmd: OBJ SAVEPACKAGE PACKAGE="/Game/Images/LockedTowerInvert" FILE="../../../../../../Users/tyler/Documents/Unreal Projects/GAM495_ArtifactFour/Content/Images/LockedTowerInvert.uasset" SILENT=true
[2018.10.08-01.35.28:871][916]LogSavePackage: Save=4.98ms
[2018.10.08-01.35.28:871][916]LogSavePackage: Moving '../../../../../../Users/tyler/Documents/Unreal Projects/GAM495_ArtifactFour/Saved/LockedTowerInvert0DEC43294C2FFBCC89E3499BD3E2611D.tmp' to '../../../../../../Users/tyler/Documents/Unreal Projects/GAM495_ArtifactFour/Content/Images/LockedTowerInvert.uasset'
[2018.10.08-01.35.28:877][916]LogSavePackage:Display: Finished SavePackage ../../../../../../Users/tyler/Documents/Unreal Projects/GAM495_ArtifactFour/Content/Images/LockedTowerInvert.uasset
[2018.10.08-01.35.31:901][ 97]AssetReimport: Info Reimported asset LockedTowerInvert from C:/Users/tyler/Documents/Unreal Projects/GAM495_ArtifactFour/Content/Images/LockedTowerInvert.png.
[2018.10.08-01.37.20:886][851]AssetReimport: New page: Outstanding source content changes 5:37:20 PM
[2018.10.08-01.37.20:886][851]LogEditorFactories: Performing atomic reimport of [C:/Users/tyler/Documents/Unreal Projects/GAM495_ArtifactFour/Content/Images/LockedTower.png]
[2018.10.08-01.37.20:887][851]LogFactory: FactoryCreateFile: Texture2D with ReimportTextureFactory (0 0 C:/Users/tyler/Documents/Unreal Projects/GAM495_ArtifactFour/Content/Images/LockedTower.png)
[2018.10.08-01.37.20:899][851]LogEditorFactories: -- imported successfully
[2018.10.08-01.37.20:941][852]Cmd: OBJ SAVEPACKAGE PACKAGE="/Game/Images/LockedTower" FILE="../../../../../../Users/tyler/Documents/Unreal Projects/GAM495_ArtifactFour/Content/Images/LockedTower.uasset" SILENT=true
[2018.10.08-01.37.20:960][852]LogSavePackage: Save=5.26ms
[2018.10.08-01.37.20:960][852]LogSavePackage: Moving '../../../../../../Users/tyler/Documents/Unreal Projects/GAM495_ArtifactFour/Saved/LockedTower2F61C3564DDE0F2D58F7679152D613B5.tmp' to '../../../../../../Users/tyler/Documents/Unreal Projects/GAM495_ArtifactFour/Content/Images/LockedTower.uasset'
[2018.10.08-01.37.20:967][852]LogSavePackage:Display: Finished SavePackage ../../../../../../Users/tyler/Documents/Unreal Projects/GAM495_ArtifactFour/Content/Images/LockedTower.uasset
[2018.10.08-01.37.24:164][986]AssetReimport: Info Reimported asset LockedTower from C:/Users/tyler/Documents/Unreal Projects/GAM495_ArtifactFour/Content/Images/LockedTower.png.
[2018.10.08-01.37.50:025][ 38]BlueprintLog: New page: Compile MainMenu
[2018.10.08-01.37.50:627][ 62]Cmd: OBJ SAVEPACKAGE PACKAGE="/Game/TopDownBP/MainMenu" FILE="../../../../../../Users/tyler/Documents/Unreal Projects/GAM495_ArtifactFour/Content/TopDownBP/MainMenu.uasset" SILENT=true
[2018.10.08-01.37.50:810][ 62]LogSavePackage: Save=116.19ms
[2018.10.08-01.37.50:810][ 62]LogSavePackage: Moving '../../../../../../Users/tyler/Documents/Unreal Projects/GAM495_ArtifactFour/Saved/MainMenu342676D64607AB83D1E97F94F1FBC4E1.tmp' to '../../../../../../Users/tyler/Documents/Unreal Projects/GAM495_ArtifactFour/Content/TopDownBP/MainMenu.uasset'
[2018.10.08-01.37.50:817][ 62]LogSavePackage:Display: Finished SavePackage ../../../../../../Users/tyler/Documents/Unreal Projects/GAM495_ArtifactFour/Content/TopDownBP/MainMenu.uasset
[2018.10.08-01.41.04:614][596]AssetReimport: New page: Outstanding source content changes 5:41:04 PM
[2018.10.08-01.41.04:615][596]LogEditorFactories: Performing atomic reimport of [C:/Users/tyler/Documents/Unreal Projects/GAM495_ArtifactFour/Content/Images/UnlockedTower.png]
[2018.10.08-01.41.04:615][596]LogFactory: FactoryCreateFile: Texture2D with ReimportTextureFactory (0 0 C:/Users/tyler/Documents/Unreal Projects/GAM495_ArtifactFour/Content/Images/UnlockedTower.png)
[2018.10.08-01.41.04:627][596]LogEditorFactories: -- imported successfully
[2018.10.08-01.41.04:673][597]Cmd: OBJ SAVEPACKAGE PACKAGE="/Game/Images/UnlockedTower" FILE="../../../../../../Users/tyler/Documents/Unreal Projects/GAM495_ArtifactFour/Content/Images/UnlockedTower.uasset" SILENT=true
[2018.10.08-01.41.04:694][597]LogSavePackage: Save=5.72ms
[2018.10.08-01.41.04:694][597]LogSavePackage: Moving '../../../../../../Users/tyler/Documents/Unreal Projects/GAM495_ArtifactFour/Saved/UnlockedTower74A6858340E268141B82DCAC859EAA8F.tmp' to '../../../../../../Users/tyler/Documents/Unreal Projects/GAM495_ArtifactFour/Content/Images/UnlockedTower.uasset'
[2018.10.08-01.41.04:701][597]LogSavePackage:Display: Finished SavePackage ../../../../../../Users/tyler/Documents/Unreal Projects/GAM495_ArtifactFour/Content/Images/UnlockedTower.uasset
[2018.10.08-01.41.07:724][721]AssetReimport: Info Reimported asset UnlockedTower from C:/Users/tyler/Documents/Unreal Projects/GAM495_ArtifactFour/Content/Images/UnlockedTower.png.
[2018.10.08-01.43.32:494][361]BlueprintLog: New page: Compile MainMenu
[2018.10.08-01.43.33:007][382]Cmd: OBJ SAVEPACKAGE PACKAGE="/Game/TopDownBP/MainMenu" FILE="../../../../../../Users/tyler/Documents/Unreal Projects/GAM495_ArtifactFour/Content/TopDownBP/MainMenu.uasset" SILENT=true
[2018.10.08-01.43.33:135][382]LogSavePackage: Save=112.55ms
[2018.10.08-01.43.33:135][382]LogSavePackage: Moving '../../../../../../Users/tyler/Documents/Unreal Projects/GAM495_ArtifactFour/Saved/MainMenu9753638A4D1B9C3DFF546CB8C452A2D7.tmp' to '../../../../../../Users/tyler/Documents/Unreal Projects/GAM495_ArtifactFour/Content/TopDownBP/MainMenu.uasset'
[2018.10.08-01.43.33:141][382]LogSavePackage:Display: Finished SavePackage ../../../../../../Users/tyler/Documents/Unreal Projects/GAM495_ArtifactFour/Content/TopDownBP/MainMenu.uasset
[2018.10.08-01.46.09:257][138]BlueprintLog: New page: Compile MainMenu
[2018.10.08-01.46.09:824][162]Cmd: OBJ SAVEPACKAGE PACKAGE="/Game/TopDownBP/MainMenu" FILE="../../../../../../Users/tyler/Documents/Unreal Projects/GAM495_ArtifactFour/Content/TopDownBP/MainMenu.uasset" SILENT=true
[2018.10.08-01.46.09:951][162]LogSavePackage: Save=112.13ms
[2018.10.08-01.46.09:951][162]LogSavePackage: Moving '../../../../../../Users/tyler/Documents/Unreal Projects/GAM495_ArtifactFour/Saved/MainMenu6C52FCCE43308E9334DE51AB18EF8E16.tmp' to '../../../../../../Users/tyler/Documents/Unreal Projects/GAM495_ArtifactFour/Content/TopDownBP/MainMenu.uasset'
[2018.10.08-01.46.09:958][162]LogSavePackage:Display: Finished SavePackage ../../../../../../Users/tyler/Documents/Unreal Projects/GAM495_ArtifactFour/Content/TopDownBP/MainMenu.uasset
[2018.10.08-01.47.48:353][321]AssetReimport: New page: Outstanding source content changes 5:47:48 PM
[2018.10.08-01.47.48:353][321]LogEditorFactories: Performing atomic reimport of [C:/Users/tyler/Documents/Unreal Projects/GAM495_ArtifactFour/Content/Images/UnlockedLevel.png]
[2018.10.08-01.47.48:353][321]LogFactory: FactoryCreateFile: Texture2D with ReimportTextureFactory (0 0 C:/Users/tyler/Documents/Unreal Projects/GAM495_ArtifactFour/Content/Images/UnlockedLevel.png)
[2018.10.08-01.47.48:363][321]LogEditorFactories: -- imported successfully
[2018.10.08-01.47.48:404][322]Cmd: OBJ SAVEPACKAGE PACKAGE="/Game/Images/UnlockedLevel" FILE="../../../../../../Users/tyler/Documents/Unreal Projects/GAM495_ArtifactFour/Content/Images/UnlockedLevel.uasset" SILENT=true
[2018.10.08-01.47.48:422][322]LogSavePackage: Save=3.89ms
[2018.10.08-01.47.48:422][322]LogSavePackage: Moving '../../../../../../Users/tyler/Documents/Unreal Projects/GAM495_ArtifactFour/Saved/UnlockedLevel562D52044B4C7C14D31B73A61BB55453.tmp' to '../../../../../../Users/tyler/Documents/Unreal Projects/GAM495_ArtifactFour/Content/Images/UnlockedLevel.uasset'
[2018.10.08-01.47.48:429][322]LogSavePackage:Display: Finished SavePackage ../../../../../../Users/tyler/Documents/Unreal Projects/GAM495_ArtifactFour/Content/Images/UnlockedLevel.uasset
[2018.10.08-01.47.51:447][502]AssetReimport: Info Reimported asset UnlockedLevel from C:/Users/tyler/Documents/Unreal Projects/GAM495_ArtifactFour/Content/Images/UnlockedLevel.png.
[2018.10.08-01.48.47:377][370]AssetReimport: New page: Outstanding source content changes 5:48:47 PM
[2018.10.08-01.48.47:378][370]LogEditorFactories: Performing atomic reimport of [C:/Users/tyler/Documents/Unreal Projects/GAM495_ArtifactFour/Content/Images/LockedLevel.png]
[2018.10.08-01.48.47:378][370]LogFactory: FactoryCreateFile: Texture2D with ReimportTextureFactory (0 0 C:/Users/tyler/Documents/Unreal Projects/GAM495_ArtifactFour/Content/Images/LockedLevel.png)
[2018.10.08-01.48.47:389][370]LogEditorFactories: -- imported successfully
[2018.10.08-01.48.47:430][371]Cmd: OBJ SAVEPACKAGE PACKAGE="/Game/Images/LockedLevel" FILE="../../../../../../Users/tyler/Documents/Unreal Projects/GAM495_ArtifactFour/Content/Images/LockedLevel.uasset" SILENT=true
[2018.10.08-01.48.47:449][371]LogSavePackage: Save=3.76ms
[2018.10.08-01.48.47:449][371]LogSavePackage: Moving '../../../../../../Users/tyler/Documents/Unreal Projects/GAM495_ArtifactFour/Saved/LockedLevel1FE1034D4B743CC9F0B792965298FF03.tmp' to '../../../../../../Users/tyler/Documents/Unreal Projects/GAM495_ArtifactFour/Content/Images/LockedLevel.uasset'
[2018.10.08-01.48.47:455][371]LogSavePackage:Display: Finished SavePackage ../../../../../../Users/tyler/Documents/Unreal Projects/GAM495_ArtifactFour/Content/Images/LockedLevel.uasset
[2018.10.08-01.48.49:016][464]LogEditorFactories: Performing atomic reimport of [C:/Users/tyler/Documents/Unreal Projects/GAM495_ArtifactFour/Content/Images/LevelSel.png]
[2018.10.08-01.48.49:016][464]LogFactory: FactoryCreateFile: Texture2D with ReimportTextureFactory (0 0 C:/Users/tyler/Documents/Unreal Projects/GAM495_ArtifactFour/Content/Images/LevelSel.png)
[2018.10.08-01.48.49:027][464]LogEditorFactories: -- imported successfully
[2018.10.08-01.48.49:052][464]Cmd: OBJ SAVEPACKAGE PACKAGE="/Game/Images/LevelSel" FILE="../../../../../../Users/tyler/Documents/Unreal Projects/GAM495_ArtifactFour/Content/Images/LevelSel.uasset" SILENT=true
[2018.10.08-01.48.49:071][464]LogSavePackage: Save=3.93ms
[2018.10.08-01.48.49:071][464]LogSavePackage: Moving '../../../../../../Users/tyler/Documents/Unreal Projects/GAM495_ArtifactFour/Saved/LevelSel0583F45348CC84E7E792AA81D4E6FDC6.tmp' to '../../../../../../Users/tyler/Documents/Unreal Projects/GAM495_ArtifactFour/Content/Images/LevelSel.uasset'
[2018.10.08-01.48.49:077][464]LogSavePackage:Display: Finished SavePackage ../../../../../../Users/tyler/Documents/Unreal Projects/GAM495_ArtifactFour/Content/Images/LevelSel.uasset
[2018.10.08-01.48.52:100][645]AssetReimport: Info Reimported asset LockedLevel from C:/Users/tyler/Documents/Unreal Projects/GAM495_ArtifactFour/Content/Images/LockedLevel.png.
[2018.10.08-01.48.52:100][645]AssetReimport: Info Reimported asset LevelSel from C:/Users/tyler/Documents/Unreal Projects/GAM495_ArtifactFour/Content/Images/LevelSel.png.
[2018.10.08-01.49.41:172][479]LogTemp: Repeting last play command: Selected Viewport
[2018.10.08-01.49.41:186][479]LogBlueprintUserMessages: Early PlayInEditor Detection: Level '/Game/TopDownBP/Maps/TopDownExampleMap.TopDownExampleMap:PersistentLevel' has LevelScriptBlueprint '/Game/TopDownBP/Maps/TopDownExampleMap.TopDownExampleMap:PersistentLevel.TopDownExampleMap' with GeneratedClass '/Game/TopDownBP/Maps/TopDownExampleMap.TopDownExampleMap_C' with ClassGeneratedBy '/Game/TopDownBP/Maps/TopDownExampleMap.TopDownExampleMap:PersistentLevel.TopDownExampleMap'
[2018.10.08-01.49.41:186][479]LogPlayLevel: PlayLevel: No blueprints needed recompiling
[2018.10.08-01.49.41:186][479]PIE: New page: PIE session: TopDownExampleMap (Oct 7, 2018, 5:49:41 PM)
[2018.10.08-01.49.41:186][479]LogPlayLevel: Creating play world package: /Game/TopDownBP/Maps/UEDPIE_0_TopDownExampleMap
[2018.10.08-01.49.41:211][479]LogPlayLevel: PIE: StaticDuplicateObject took: (0.024493s)
[2018.10.08-01.49.41:212][479]LogAIModule: Creating AISystem for world TopDownExampleMap
[2018.10.08-01.49.41:212][479]LogPlayLevel: PIE: World Init took: (0.000913s)
[2018.10.08-01.49.41:212][479]LogPlayLevel: PIE: Created PIE world by copying editor world from /Game/TopDownBP/Maps/TopDownExampleMap.TopDownExampleMap to /Game/TopDownBP/Maps/UEDPIE_0_TopDownExampleMap.TopDownExampleMap (0.025686s)
[2018.10.08-01.49.41:280][479]LogInit: XAudio2 using 'Speakers (Realtek High Definition Audio)' : 2 channels at 48 kHz using 32 bits per sample (channel mask 0x3)
[2018.10.08-01.49.41:301][479]LogInit: FAudioDevice initialized.
[2018.10.08-01.49.41:353][479]LogLoad: Game class is 'TopDownGameMode_C'
[2018.10.08-01.49.41:356][479]LogWorld: Bringing World /Game/TopDownBP/Maps/UEDPIE_0_TopDownExampleMap.TopDownExampleMap up for play (max tick rate 60) at 2018.10.07-21.49.41
[2018.10.08-01.49.41:356][479]LogWorld: Bringing up level for play took: 0.002564
[2018.10.08-01.49.41:410][479]LogContentBrowser: Native class hierarchy updated for 'MovieSceneCapture' in 0.0007 seconds. Added 11 classes and 0 folders.
[2018.10.08-01.49.41:410][479]LogGameMode:Display: Match State Changed from EnteringMap to WaitingToStart
[2018.10.08-01.49.41:410][479]LogGameState: Match State Changed from EnteringMap to WaitingToStart
[2018.10.08-01.49.41:410][479]LogGameMode:Display: Match State Changed from WaitingToStart to InProgress
[2018.10.08-01.49.41:411][479]LogGameState: Match State Changed from WaitingToStart to InProgress
[2018.10.08-01.49.41:411][479]PIE: Info Play in editor start time for /Game/TopDownBP/Maps/UEDPIE_0_TopDownExampleMap -0.603
[2018.10.08-01.49.41:411][479]LogBlueprintUserMessages: Late PlayInEditor Detection: Level '/Game/TopDownBP/Maps/TopDownExampleMap.TopDownExampleMap:PersistentLevel' has LevelScriptBlueprint '/Game/TopDownBP/Maps/TopDownExampleMap.TopDownExampleMap:PersistentLevel.TopDownExampleMap' with GeneratedClass '/Game/TopDownBP/Maps/TopDownExampleMap.TopDownExampleMap_C' with ClassGeneratedBy '/Game/TopDownBP/Maps/TopDownExampleMap.TopDownExampleMap:PersistentLevel.TopDownExampleMap'
[2018.10.08-01.49.42:722][557]LogBlueprintUserMessages: Early EndPlayMap Detection: Level '/Game/TopDownBP/Maps/TopDownExampleMap.TopDownExampleMap:PersistentLevel' has LevelScriptBlueprint '/Game/TopDownBP/Maps/TopDownExampleMap.TopDownExampleMap:PersistentLevel.TopDownExampleMap' with GeneratedClass '/Game/TopDownBP/Maps/TopDownExampleMap.TopDownExampleMap_C' with ClassGeneratedBy '/Game/TopDownBP/Maps/TopDownExampleMap.TopDownExampleMap:PersistentLevel.TopDownExampleMap'
[2018.10.08-01.49.42:759][557]LogBlueprintUserMessages: Late EndPlayMap Detection: Level '/Game/TopDownBP/Maps/TopDownExampleMap.TopDownExampleMap:PersistentLevel' has LevelScriptBlueprint '/Game/TopDownBP/Maps/TopDownExampleMap.TopDownExampleMap:PersistentLevel.TopDownExampleMap' with GeneratedClass '/Game/TopDownBP/Maps/TopDownExampleMap.TopDownExampleMap_C' with ClassGeneratedBy '/Game/TopDownBP/Maps/TopDownExampleMap.TopDownExampleMap:PersistentLevel.TopDownExampleMap'
[2018.10.08-01.49.43:941][625]LogAIModule: Creating AISystem for world Startup
[2018.10.08-01.49.43:960][625]Cmd: MAP LOAD FILE="../../../../../../Users/tyler/Documents/Unreal Projects/GAM495_ArtifactFour/Content/TopDownBP/Startup.umap" TEMPLATE=0 SHOWPROGRESS=1 FEATURELEVEL=3
[2018.10.08-01.49.43:960][625]LightingResults: New page: Lighting Build
[2018.10.08-01.49.43:961][625]LoadErrors: New page: Loading map: Startup.umap
[2018.10.08-01.49.43:961][625]MapCheck: New page: Map Check
[2018.10.08-01.49.43:961][625]LightingResults: New page: Lighting Build
[2018.10.08-01.49.44:033][625]LogEditorServer: Finished looking for orphan Actors (0.000 secs)
[2018.10.08-01.49.44:049][625]Cmd: MAP CHECKDEP NOCLEARLOG
[2018.10.08-01.49.44:136][625]MapCheck: Info Map check complete: 0 Error(s), 0 Warning(s), took 86.611ms to complete.
[2018.10.08-01.49.44:136][625]LogFileHelpers: Loading map 'Startup' took 0.177
[2018.10.08-01.49.50:952][900]LogSlate: Only BGRA pngs, bmps or icos are supported in by External Image Picker
[2018.10.08-01.49.51:150][900]LogTemp:Display: Executing iPhonePackager certificates Engine -bundlename com.YourCompany.GAM495ArtifactFour

[2018.10.08-01.49.51:150][900]LogTemp:Display: CWD: C:\Program Files\Epic Games\UE_4.14\Engine\Binaries\DotNet\IOS

[2018.10.08-01.49.51:150][900]LogTemp:Display: Initial Dir: C:\Program Files\Epic Games\UE_4.14

[2018.10.08-01.49.51:150][900]LogTemp:Display: Env CWD: C:\Program Files\Epic Games\UE_4.14\Engine\Binaries\DotNet\IOS

[2018.10.08-01.49.51:150][900]LogTemp:Display: BranchPath = TYLER-WLAPTOP/C/Program Files/Epic Games/UE_4.14/Engine/Binaries --- GameBranchPath = TYLER-WLAPTOP/C/Program Files/Epic Games/UE_4.14/Engine/Binaries

[2018.10.08-01.49.51:293][908]LogTemp:Display: IPP ERROR: Application exception: System.IO.DirectoryNotFoundException: Could not find a part of the path 'C:\Users\tyler\AppData\Local\Apple Computer\MobileDevice\Provisioning Profiles'.

[2018.10.08-01.49.51:293][908]LogTemp:Display:    at System.IO.__Error.WinIOError(Int32 errorCode, String maybeFullPath)

[2018.10.08-01.49.51:293][908]LogTemp:Display:    at System.IO.FileSystemEnumerableIterator`1.CommonInit()

[2018.10.08-01.49.51:293][908]LogTemp:Display:    at System.IO.FileSystemEnumerableIterator`1..ctor(String path, String originalUserPath, String searchPattern, SearchOption searchOption, SearchResultHandler`1 resultHandler, Boolean checkHost)

[2018.10.08-01.49.51:293][908]LogTemp:Display:    at System.IO.Directory.EnumerateFiles(String path, String searchPattern)

[2018.10.08-01.49.51:293][908]LogTemp:Display:    at iPhonePackager.CodeSignatureBuilder.FindProvisions(String CFBundleIdentifier)

[2018.10.08-01.49.51:293][908]LogTemp:Display:    at iPhonePackager.Program.Main(String[] args)

[2018.10.08-01.50.11:899][119]LogSavePackage: Save=83.67ms
[2018.10.08-01.50.11:899][119]LogSavePackage: Moving '../../../../../../Users/tyler/Documents/Unreal Projects/GAM495_ArtifactFour/Saved/StartupAF96386A443C5BB49CD9BF9505FCAF17.tmp' to '../../../../../../Users/tyler/Documents/Unreal Projects/GAM495_ArtifactFour/Content/TopDownBP/Startup.umap'
[2018.10.08-01.50.11:902][119]LogSavePackage:Display: Finished SavePackage ../../../../../../Users/tyler/Documents/Unreal Projects/GAM495_ArtifactFour/Content/TopDownBP/Startup.umap
[2018.10.08-01.50.12:900][178]LogTemp: Repeting last play command: Selected Viewport
[2018.10.08-01.50.12:913][178]LogBlueprintUserMessages: Early PlayInEditor Detection: Level '/Game/TopDownBP/Startup.Startup:PersistentLevel' has LevelScriptBlueprint '/Game/TopDownBP/Startup.Startup:PersistentLevel.Startup' with GeneratedClass '/Game/TopDownBP/Startup.Startup_C' with ClassGeneratedBy '/Game/TopDownBP/Startup.Startup:PersistentLevel.Startup'
[2018.10.08-01.50.12:913][178]LogPlayLevel: PlayLevel: No blueprints needed recompiling
[2018.10.08-01.50.12:913][178]PIE: New page: PIE session: Startup (Oct 7, 2018, 5:50:12 PM)
[2018.10.08-01.50.12:913][178]LogPlayLevel: Creating play world package: /Game/TopDownBP/UEDPIE_0_Startup
[2018.10.08-01.50.12:914][178]LogPlayLevel: PIE: StaticDuplicateObject took: (0.000821s)
[2018.10.08-01.50.12:914][178]LogAIModule: Creating AISystem for world Startup
[2018.10.08-01.50.12:914][178]LogPlayLevel: PIE: World Init took: (0.000467s)
[2018.10.08-01.50.12:915][178]LogPlayLevel: PIE: Created PIE world by copying editor world from /Game/TopDownBP/Startup.Startup to /Game/TopDownBP/UEDPIE_0_Startup.Startup (0.001552s)
[2018.10.08-01.50.12:932][178]LogInit: XAudio2 using 'Speakers (Realtek High Definition Audio)' : 2 channels at 48 kHz using 32 bits per sample (channel mask 0x3)
[2018.10.08-01.50.12:950][178]LogInit: FAudioDevice initialized.
[2018.10.08-01.50.12:983][178]LogLoad: Game class is 'TopDownGameMode_C'
[2018.10.08-01.50.12:985][178]LogWorld: Bringing World /Game/TopDownBP/UEDPIE_0_Startup.Startup up for play (max tick rate 60) at 2018.10.07-21.50.12
[2018.10.08-01.50.12:985][178]LogWorld: Bringing up level for play took: 0.000900
[2018.10.08-01.50.12:986][178]LogGameMode:Display: Match State Changed from EnteringMap to WaitingToStart
[2018.10.08-01.50.12:986][178]LogGameState: Match State Changed from EnteringMap to WaitingToStart
[2018.10.08-01.50.12:986][178]LogGameMode:Display: Match State Changed from WaitingToStart to InProgress
[2018.10.08-01.50.12:992][178]LogGameState: Match State Changed from WaitingToStart to InProgress
[2018.10.08-01.50.12:992][178]PIE: Info Play in editor start time for /Game/TopDownBP/UEDPIE_0_Startup 0.979
[2018.10.08-01.50.12:992][178]LogBlueprintUserMessages: Late PlayInEditor Detection: Level '/Game/TopDownBP/Startup.Startup:PersistentLevel' has LevelScriptBlueprint '/Game/TopDownBP/Startup.Startup:PersistentLevel.Startup' with GeneratedClass '/Game/TopDownBP/Startup.Startup_C' with ClassGeneratedBy '/Game/TopDownBP/Startup.Startup:PersistentLevel.Startup'
[2018.10.08-01.50.14:099][243]LogActor:Warning: TopDownCharacter_C_0 is outside the world bounds!
[2018.10.08-01.50.46:902][211]LogBlueprintUserMessages: Early EndPlayMap Detection: Level '/Game/TopDownBP/Startup.Startup:PersistentLevel' has LevelScriptBlueprint '/Game/TopDownBP/Startup.Startup:PersistentLevel.Startup' with GeneratedClass '/Game/TopDownBP/Startup.Startup_C' with ClassGeneratedBy '/Game/TopDownBP/Startup.Startup:PersistentLevel.Startup'
[2018.10.08-01.50.46:939][211]LogBlueprintUserMessages: Late EndPlayMap Detection: Level '/Game/TopDownBP/Startup.Startup:PersistentLevel' has LevelScriptBlueprint '/Game/TopDownBP/Startup.Startup:PersistentLevel.Startup' with GeneratedClass '/Game/TopDownBP/Startup.Startup_C' with ClassGeneratedBy '/Game/TopDownBP/Startup.Startup:PersistentLevel.Startup'
[2018.10.08-01.51.31:328][787]Cmd: OBJ SAVEPACKAGE PACKAGE="/Game/Images/MenuBG" FILE="../../../../../../Users/tyler/Documents/Unreal Projects/GAM495_ArtifactFour/Content/Images/MenuBG.uasset" SILENT=true
[2018.10.08-01.51.31:352][787]LogSavePackage: Save=21.87ms
[2018.10.08-01.51.31:352][787]LogSavePackage: Moving '../../../../../../Users/tyler/Documents/Unreal Projects/GAM495_ArtifactFour/Saved/MenuBGA5699CAF4EF9B1095DBB3A94FECDFA83.tmp' to '../../../../../../Users/tyler/Documents/Unreal Projects/GAM495_ArtifactFour/Content/Images/MenuBG.uasset'
[2018.10.08-01.51.31:372][787]LogSavePackage:Display: Finished SavePackage ../../../../../../Users/tyler/Documents/Unreal Projects/GAM495_ArtifactFour/Content/Images/MenuBG.uasset
[2018.10.08-01.51.31:507][787]Cmd: OBJ SAVEPACKAGE PACKAGE="/Game/TopDownBP/MainMenu" FILE="../../../../../../Users/tyler/Documents/Unreal Projects/GAM495_ArtifactFour/Content/TopDownBP/MainMenu.uasset" SILENT=true
[2018.10.08-01.51.31:628][787]LogSavePackage: Save=107.73ms
[2018.10.08-01.51.31:628][787]LogSavePackage: Moving '../../../../../../Users/tyler/Documents/Unreal Projects/GAM495_ArtifactFour/Saved/MainMenu6BFB6F7A4CC9D395ABEFD1887018692C.tmp' to '../../../../../../Users/tyler/Documents/Unreal Projects/GAM495_ArtifactFour/Content/TopDownBP/MainMenu.uasset'
[2018.10.08-01.51.31:631][787]LogSavePackage:Display: Finished SavePackage ../../../../../../Users/tyler/Documents/Unreal Projects/GAM495_ArtifactFour/Content/TopDownBP/MainMenu.uasset
[2018.10.08-01.51.44:172][531]Cmd: OBJ SAVEPACKAGE PACKAGE="/Game/Images/NavBtn_Hover" FILE="../../../../../../Users/tyler/Documents/Unreal Projects/GAM495_ArtifactFour/Content/Images/NavBtn_Hover.uasset" SILENT=true
[2018.10.08-01.51.44:178][531]LogSavePackage: Save=3.49ms
[2018.10.08-01.51.44:178][531]LogSavePackage: Moving '../../../../../../Users/tyler/Documents/Unreal Projects/GAM495_ArtifactFour/Saved/NavBtn_Hover234F43A54F4E63363177E789207C7F95.tmp' to '../../../../../../Users/tyler/Documents/Unreal Projects/GAM495_ArtifactFour/Content/Images/NavBtn_Hover.uasset'
[2018.10.08-01.51.44:184][531]LogSavePackage:Display: Finished SavePackage ../../../../../../Users/tyler/Documents/Unreal Projects/GAM495_ArtifactFour/Content/Images/NavBtn_Hover.uasset
[2018.10.08-01.51.44:320][531]Cmd: OBJ SAVEPACKAGE PACKAGE="/Game/TopDownBP/MainMenu" FILE="../../../../../../Users/tyler/Documents/Unreal Projects/GAM495_ArtifactFour/Content/TopDownBP/MainMenu.uasset" SILENT=true
[2018.10.08-01.51.44:440][531]LogSavePackage: Save=108.52ms
[2018.10.08-01.51.44:440][531]LogSavePackage: Moving '../../../../../../Users/tyler/Documents/Unreal Projects/GAM495_ArtifactFour/Saved/MainMenu43FAF88C48126886C49E9F994A8B12A1.tmp' to '../../../../../../Users/tyler/Documents/Unreal Projects/GAM495_ArtifactFour/Content/TopDownBP/MainMenu.uasset'
[2018.10.08-01.51.44:443][531]LogSavePackage:Display: Finished SavePackage ../../../../../../Users/tyler/Documents/Unreal Projects/GAM495_ArtifactFour/Content/TopDownBP/MainMenu.uasset
[2018.10.08-01.51.54:026][100]Cmd: OBJ SAVEPACKAGE PACKAGE="/Game/Images/NavBtn_NoHover" FILE="../../../../../../Users/tyler/Documents/Unreal Projects/GAM495_ArtifactFour/Content/Images/NavBtn_NoHover.uasset" SILENT=true
[2018.10.08-01.51.54:032][100]LogSavePackage: Save=3.08ms
[2018.10.08-01.51.54:032][100]LogSavePackage: Moving '../../../../../../Users/tyler/Documents/Unreal Projects/GAM495_ArtifactFour/Saved/NavBtn_NoHoverAF79D07E4FDA76CCDB78E69496173C26.tmp' to '../../../../../../Users/tyler/Documents/Unreal Projects/GAM495_ArtifactFour/Content/Images/NavBtn_NoHover.uasset'
[2018.10.08-01.51.54:038][100]LogSavePackage:Display: Finished SavePackage ../../../../../../Users/tyler/Documents/Unreal Projects/GAM495_ArtifactFour/Content/Images/NavBtn_NoHover.uasset
[2018.10.08-01.51.54:174][100]Cmd: OBJ SAVEPACKAGE PACKAGE="/Game/TopDownBP/MainMenu" FILE="../../../../../../Users/tyler/Documents/Unreal Projects/GAM495_ArtifactFour/Content/TopDownBP/MainMenu.uasset" SILENT=true
[2018.10.08-01.51.54:294][100]LogSavePackage: Save=107.70ms
[2018.10.08-01.51.54:294][100]LogSavePackage: Moving '../../../../../../Users/tyler/Documents/Unreal Projects/GAM495_ArtifactFour/Saved/MainMenuAC8E19B443B6A6BAC4FD77934CF3E1C6.tmp' to '../../../../../../Users/tyler/Documents/Unreal Projects/GAM495_ArtifactFour/Content/TopDownBP/MainMenu.uasset'
[2018.10.08-01.51.54:297][100]LogSavePackage:Display: Finished SavePackage ../../../../../../Users/tyler/Documents/Unreal Projects/GAM495_ArtifactFour/Content/TopDownBP/MainMenu.uasset
[2018.10.08-01.51.59:730][419]Cmd: OBJ SAVEPACKAGE PACKAGE="/Game/Images/NavBtn_Normal" FILE="../../../../../../Users/tyler/Documents/Unreal Projects/GAM495_ArtifactFour/Content/Images/NavBtn_Normal.uasset" SILENT=true
[2018.10.08-01.51.59:736][419]LogSavePackage: Save=3.16ms
[2018.10.08-01.51.59:736][419]LogSavePackage: Moving '../../../../../../Users/tyler/Documents/Unreal Projects/GAM495_ArtifactFour/Saved/NavBtn_Normal85CD7FDE4F2F5A64C85D53B764188FB5.tmp' to '../../../../../../Users/tyler/Documents/Unreal Projects/GAM495_ArtifactFour/Content/Images/NavBtn_Normal.uasset'
[2018.10.08-01.51.59:742][419]LogSavePackage:Display: Finished SavePackage ../../../../../../Users/tyler/Documents/Unreal Projects/GAM495_ArtifactFour/Content/Images/NavBtn_Normal.uasset
[2018.10.08-01.51.59:878][419]Cmd: OBJ SAVEPACKAGE PACKAGE="/Game/TopDownBP/MainMenu" FILE="../../../../../../Users/tyler/Documents/Unreal Projects/GAM495_ArtifactFour/Content/TopDownBP/MainMenu.uasset" SILENT=true
[2018.10.08-01.51.59:998][419]LogSavePackage: Save=107.97ms
[2018.10.08-01.51.59:998][419]LogSavePackage: Moving '../../../../../../Users/tyler/Documents/Unreal Projects/GAM495_ArtifactFour/Saved/MainMenu6CAE2E034117AEA0935796B78E5376A0.tmp' to '../../../../../../Users/tyler/Documents/Unreal Projects/GAM495_ArtifactFour/Content/TopDownBP/MainMenu.uasset'
[2018.10.08-01.52.00:001][419]LogSavePackage:Display: Finished SavePackage ../../../../../../Users/tyler/Documents/Unreal Projects/GAM495_ArtifactFour/Content/TopDownBP/MainMenu.uasset
[2018.10.08-01.52.06:163][783]Cmd: OBJ SAVEPACKAGE PACKAGE="/Game/Images/NavBtn_Pressed" FILE="../../../../../../Users/tyler/Documents/Unreal Projects/GAM495_ArtifactFour/Content/Images/NavBtn_Pressed.uasset" SILENT=true
[2018.10.08-01.52.06:170][783]LogSavePackage: Save=3.36ms
[2018.10.08-01.52.06:170][783]LogSavePackage: Moving '../../../../../../Users/tyler/Documents/Unreal Projects/GAM495_ArtifactFour/Saved/NavBtn_Pressed238032E84473E369E768D398A84B34B3.tmp' to '../../../../../../Users/tyler/Documents/Unreal Projects/GAM495_ArtifactFour/Content/Images/NavBtn_Pressed.uasset'
[2018.10.08-01.52.06:175][783]LogSavePackage:Display: Finished SavePackage ../../../../../../Users/tyler/Documents/Unreal Projects/GAM495_ArtifactFour/Content/Images/NavBtn_Pressed.uasset
[2018.10.08-01.52.06:310][783]Cmd: OBJ SAVEPACKAGE PACKAGE="/Game/TopDownBP/MainMenu" FILE="../../../../../../Users/tyler/Documents/Unreal Projects/GAM495_ArtifactFour/Content/TopDownBP/MainMenu.uasset" SILENT=true
[2018.10.08-01.52.06:430][783]LogSavePackage: Save=109.09ms
[2018.10.08-01.52.06:430][783]LogSavePackage: Moving '../../../../../../Users/tyler/Documents/Unreal Projects/GAM495_ArtifactFour/Saved/MainMenuF9A719EB43A09E5C1D134EAC30BFDC15.tmp' to '../../../../../../Users/tyler/Documents/Unreal Projects/GAM495_ArtifactFour/Content/TopDownBP/MainMenu.uasset'
[2018.10.08-01.52.06:433][783]LogSavePackage:Display: Finished SavePackage ../../../../../../Users/tyler/Documents/Unreal Projects/GAM495_ArtifactFour/Content/TopDownBP/MainMenu.uasset
[2018.10.08-01.52.10:448][ 15]LogSavePackage: Save=77.46ms
[2018.10.08-01.52.10:448][ 15]LogSavePackage: Moving '../../../../../../Users/tyler/Documents/Unreal Projects/GAM495_ArtifactFour/Saved/Startup7310DE6F42DEED68CAA46FB250CBF957.tmp' to '../../../../../../Users/tyler/Documents/Unreal Projects/GAM495_ArtifactFour/Content/TopDownBP/Startup.umap'
[2018.10.08-01.52.10:451][ 15]LogSavePackage:Display: Finished SavePackage ../../../../../../Users/tyler/Documents/Unreal Projects/GAM495_ArtifactFour/Content/TopDownBP/Startup.umap
[2018.10.08-01.52.11:948][103]LogTemp: Repeting last play command: Selected Viewport
[2018.10.08-01.52.11:960][103]LogBlueprintUserMessages: Early PlayInEditor Detection: Level '/Game/TopDownBP/Startup.Startup:PersistentLevel' has LevelScriptBlueprint '/Game/TopDownBP/Startup.Startup:PersistentLevel.Startup' with GeneratedClass '/Game/TopDownBP/Startup.Startup_C' with ClassGeneratedBy '/Game/TopDownBP/Startup.Startup:PersistentLevel.Startup'
[2018.10.08-01.52.11:960][103]LogPlayLevel: PlayLevel: No blueprints needed recompiling
[2018.10.08-01.52.11:960][103]PIE: New page: PIE session: Startup (Oct 7, 2018, 5:52:11 PM)
[2018.10.08-01.52.11:960][103]LogPlayLevel: Creating play world package: /Game/TopDownBP/UEDPIE_0_Startup
[2018.10.08-01.52.11:961][103]LogPlayLevel: PIE: StaticDuplicateObject took: (0.000862s)
[2018.10.08-01.52.11:962][103]LogAIModule: Creating AISystem for world Startup
[2018.10.08-01.52.11:962][103]LogPlayLevel: PIE: World Init took: (0.000563s)
[2018.10.08-01.52.11:962][103]LogPlayLevel: PIE: Created PIE world by copying editor world from /Game/TopDownBP/Startup.Startup to /Game/TopDownBP/UEDPIE_0_Startup.Startup (0.001641s)
[2018.10.08-01.52.11:978][103]LogInit: XAudio2 using 'Speakers (Realtek High Definition Audio)' : 2 channels at 48 kHz using 32 bits per sample (channel mask 0x3)
[2018.10.08-01.52.11:998][103]LogInit: FAudioDevice initialized.
[2018.10.08-01.52.12:028][103]LogLoad: Game class is 'TopDownGameMode_C'
[2018.10.08-01.52.12:030][103]LogWorld: Bringing World /Game/TopDownBP/UEDPIE_0_Startup.Startup up for play (max tick rate 60) at 2018.10.07-21.52.12
[2018.10.08-01.52.12:031][103]LogWorld: Bringing up level for play took: 0.000941
[2018.10.08-01.52.12:031][103]LogGameMode:Display: Match State Changed from EnteringMap to WaitingToStart
[2018.10.08-01.52.12:031][103]LogGameState: Match State Changed from EnteringMap to WaitingToStart
[2018.10.08-01.52.12:031][103]LogGameMode:Display: Match State Changed from WaitingToStart to InProgress
[2018.10.08-01.52.12:037][103]LogGameState: Match State Changed from WaitingToStart to InProgress
[2018.10.08-01.52.12:037][103]PIE: Info Play in editor start time for /Game/TopDownBP/UEDPIE_0_Startup 0.024
[2018.10.08-01.52.12:038][103]LogBlueprintUserMessages: Late PlayInEditor Detection: Level '/Game/TopDownBP/Startup.Startup:PersistentLevel' has LevelScriptBlueprint '/Game/TopDownBP/Startup.Startup:PersistentLevel.Startup' with GeneratedClass '/Game/TopDownBP/Startup.Startup_C' with ClassGeneratedBy '/Game/TopDownBP/Startup.Startup:PersistentLevel.Startup'
[2018.10.08-01.52.13:129][168]LogActor:Warning: TopDownCharacter_C_0 is outside the world bounds!
[2018.10.08-01.52.30:246][192]LogGameMode:Display: Match State Changed from InProgress to LeavingMap
[2018.10.08-01.52.30:246][192]LogGameState: Match State Changed from InProgress to LeavingMap
[2018.10.08-01.52.30:246][192]LogNet: Browse: /Game/TopDownBP/Maps/TopDownExampleMap
[2018.10.08-01.52.30:250][192]LogLoad: LoadMap: /Game/TopDownBP/Maps/TopDownExampleMap
[2018.10.08-01.52.30:266][192]Cmd: MEM
[2018.10.08-01.52.30:280][192]LogMemory: Platform Memory Stats for Windows
[2018.10.08-01.52.30:280][192]LogMemory: Process Physical Memory: 1313.69 MB used, 1582.58 MB peak
[2018.10.08-01.52.30:280][192]LogMemory: Process Virtual Memory: 1855.35 MB used, 2228.14 MB peak
[2018.10.08-01.52.30:280][192]LogMemory: Physical Memory: 7241.95 MB used,  9077.85 MB free, 16319.80 MB total
[2018.10.08-01.52.30:280][192]LogMemory: Virtual Memory: 7147.93 MB used,  9077.85 MB free, 134217728.00 MB total
[2018.10.08-01.52.30:280][192]LogMemory: 
[2018.10.08-01.52.30:280][192]Allocator Stats for TBB: (not implemented)
[2018.10.08-01.52.31:407][192]LogAIModule: Creating AISystem for world TopDownExampleMap
[2018.10.08-01.52.31:407][192]LogLoad: Game class is 'TopDownGameMode_C'
[2018.10.08-01.52.31:410][192]LogActorComponent: RegisterComponentWithWorld: (/Game/TopDownBP/Maps/UEDPIE_0_TopDownExampleMap.TopDownExampleMap:PersistentLevel.WorldInfo_0.StaticMeshComponent0) Trying to register component with IsPendingKill() == true. Aborting.
[2018.10.08-01.52.31:413][192]LogWorld: Bringing World /Game/TopDownBP/Maps/UEDPIE_0_TopDownExampleMap.TopDownExampleMap up for play (max tick rate 60) at 2018.10.07-21.52.31
[2018.10.08-01.52.31:413][192]LogWorld: Bringing up level for play took: 0.003727
[2018.10.08-01.52.31:414][192]LogGameMode:Display: Match State Changed from EnteringMap to WaitingToStart
[2018.10.08-01.52.31:414][192]LogGameState: Match State Changed from EnteringMap to WaitingToStart
[2018.10.08-01.52.31:414][192]LogGameMode:Display: Match State Changed from WaitingToStart to InProgress
[2018.10.08-01.52.31:414][192]LogGameState: Match State Changed from WaitingToStart to InProgress
[2018.10.08-01.52.31:437][192]LogLoad: Took 1.187116 seconds to LoadMap(/Game/TopDownBP/Maps/TopDownExampleMap)
[2018.10.08-01.52.33:732][324]LogBlueprintUserMessages: Early EndPlayMap Detection: Level '/Game/TopDownBP/Startup.Startup:PersistentLevel' has LevelScriptBlueprint '/Game/TopDownBP/Startup.Startup:PersistentLevel.Startup' with GeneratedClass '/Game/TopDownBP/Startup.Startup_C' with ClassGeneratedBy '/Game/TopDownBP/Startup.Startup:PersistentLevel.Startup'
[2018.10.08-01.52.33:765][324]LogBlueprintUserMessages: Late EndPlayMap Detection: Level '/Game/TopDownBP/Startup.Startup:PersistentLevel' has LevelScriptBlueprint '/Game/TopDownBP/Startup.Startup:PersistentLevel.Startup' with GeneratedClass '/Game/TopDownBP/Startup.Startup_C' with ClassGeneratedBy '/Game/TopDownBP/Startup.Startup:PersistentLevel.Startup'
[2018.10.08-01.52.38:111][576]LogSavePackage: Save=77.12ms
[2018.10.08-01.52.38:111][576]LogSavePackage: Moving '../../../../../../Users/tyler/Documents/Unreal Projects/GAM495_ArtifactFour/Saved/Startup89095F4F4BF4C434DD14D9AEA6900E3B.tmp' to '../../../../../../Users/tyler/Documents/Unreal Projects/GAM495_ArtifactFour/Content/TopDownBP/Startup.umap'
[2018.10.08-01.52.38:114][576]LogSavePackage:Display: Finished SavePackage ../../../../../../Users/tyler/Documents/Unreal Projects/GAM495_ArtifactFour/Content/TopDownBP/Startup.umap
[2018.10.08-01.52.41:033][742]LogWindowsTextInputMethodSystem:Display: IME system now deactivated.
[2018.10.08-01.52.41:219][743]Cmd: QUIT_EDITOR
[2018.10.08-01.52.41:307][743]LogExit: Preparing to exit.
[2018.10.08-01.52.42:325][743]LogDirectoryWatcher: A directory notification for 'C:/Users/tyler/Documents/Unreal Projects/GAM495_ArtifactFour/Content/' was aborted.
[2018.10.08-01.52.42:350][743]LogExit: Editor shut down
[2018.10.08-01.52.42:351][743]LogExit: Transaction tracking system shut down
[2018.10.08-01.52.42:437][743]LogObj: Freed 0b from 0 cluster array pools.
[2018.10.08-01.52.42:437][743]LogExit: Object subsystem successfully closed.
[2018.10.08-01.52.42:453][743]LogD3D11RHI: Shutdown
[2018.10.08-01.52.42:453][743]LogD3D11RHI: CleanupD3DDevice
[2018.10.08-01.52.42:519][743]LogD3D11RHI: ~FD3D11DynamicRHI
[2018.10.08-01.52.42:547][743]LogHttp:Display: Http module shutting down, but needs to wait on 1 outstanding Http requests:
[2018.10.08-01.52.42:547][743]LogHttp:Display: 	verb=[POST] url=[https://datarouter.ol.epicgames.com/datarouter/api/v1/public/data?SessionID=%7BF968B65F-4DC2-F91D-4501-3EBC08233D9C%7D&AppID=UEEditor.Rocket.Release&AppVersion=4.14.3-3249277%2B%2B%2BUE4%2BRelease-4.14&UserID=cbe52a35460efd3d423979901ae35191%7Cc37453e731b847ef9d954ecd80ec1dda%7C4824408f-0344-4290-8aba-246d47591c80&AppEnvironment=datacollector-binary&UploadType=eteventstream] status=Processing
[2018.10.08-01.52.42:564][743]LogModuleManager: Shutting down and abandoning module ExternalImagePicker (246)
[2018.10.08-01.52.42:564][743]LogModuleManager: Shutting down and abandoning module MovieSceneCapture (245)
[2018.10.08-01.52.42:564][743]LogModuleManager: Shutting down and abandoning module SequencerWidgets (244)
[2018.10.08-01.52.42:564][743]LogModuleManager: Shutting down and abandoning module BlueprintGraph (243)
[2018.10.08-01.52.42:564][743]LogModuleManager: Shutting down and abandoning module BlueprintProfiler (242)
[2018.10.08-01.52.42:564][743]LogModuleManager: Shutting down and abandoning module HierarchicalLODOutliner (241)
[2018.10.08-01.52.42:564][743]LogModuleManager: Shutting down and abandoning module CrashTracker (240)
[2018.10.08-01.52.42:564][743]LogModuleManager: Shutting down and abandoning module SceneOutliner (239)
[2018.10.08-01.52.42:564][743]LogModuleManager: Shutting down and abandoning module WidgetCarousel (238)
[2018.10.08-01.52.42:564][743]LogModuleManager: Shutting down and abandoning module AddContentDialog (237)
[2018.10.08-01.52.42:564][743]LogDirectoryWatcher: A directory notification for 'C:/Program Files/Epic Games/UE_4.14/FeaturePacks/' was aborted.
[2018.10.08-01.52.42:566][743]LogModuleManager: Shutting down and abandoning module GameplayTags (236)
[2018.10.08-01.52.42:566][743]LogModuleManager: Shutting down and abandoning module EditorWidgets (235)
[2018.10.08-01.52.42:566][743]LogModuleManager: Shutting down and abandoning module CollectionManager (234)
[2018.10.08-01.52.42:566][743]LogDirectoryWatcher: A directory notification for 'C:/Users/tyler/Documents/Unreal Projects/GAM495_ArtifactFour/Content/Collections/' was aborted.
[2018.10.08-01.52.42:566][743]LogDirectoryWatcher: A directory notification for 'C:/Users/tyler/Documents/Unreal Projects/GAM495_ArtifactFour/Content/Developers/tyler/Collections/' was aborted.
[2018.10.08-01.52.42:566][743]LogDirectoryWatcher: A directory notification for 'C:/Users/tyler/Documents/Unreal Projects/GAM495_ArtifactFour/Saved/Collections/' was aborted.
[2018.10.08-01.52.42:566][743]LogModuleManager: Shutting down and abandoning module StatsViewer (233)
[2018.10.08-01.52.42:566][743]LogModuleManager: Shutting down and abandoning module FoliageEdit (232)
[2018.10.08-01.52.42:566][743]LogModuleManager: Shutting down and abandoning module LandscapeEditor (231)
[2018.10.08-01.52.42:622][743]LogModuleManager: Shutting down and abandoning module SceneDepthPickerMode (230)
[2018.10.08-01.52.42:622][743]LogModuleManager: Shutting down and abandoning module ActorPickerMode (229)
[2018.10.08-01.52.42:622][743]LogModuleManager: Shutting down and abandoning module GeometryMode (228)
[2018.10.08-01.52.42:622][743]LogModuleManager: Shutting down and abandoning module TextureAlignMode (227)
[2018.10.08-01.52.42:622][743]LogModuleManager: Shutting down and abandoning module BspMode (226)
[2018.10.08-01.52.42:622][743]LogModuleManager: Shutting down and abandoning module HardwareSurvey (225)
[2018.10.08-01.52.42:622][743]LogModuleManager: Shutting down and abandoning module SequenceRecorderSections (224)
[2018.10.08-01.52.42:622][743]LogModuleManager: Shutting down and abandoning module AutomationWorker (223)
[2018.10.08-01.52.42:622][743]LogModuleManager: Shutting down and abandoning module MatineeToLevelSequence (222)
[2018.10.08-01.52.42:622][743]LogModuleManager: Shutting down and abandoning module PlacementMode (221)
[2018.10.08-01.52.42:622][743]LogModuleManager: Shutting down and abandoning module LevelSequenceEditor (220)
[2018.10.08-01.52.42:622][743]LogModuleManager: Shutting down and abandoning module WmfMediaFactory (219)
[2018.10.08-01.52.42:622][743]LogModuleManager: Shutting down and abandoning module WmfMediaEditor (218)
[2018.10.08-01.52.42:622][743]LogModuleManager: Shutting down and abandoning module AvfMediaFactory (217)
[2018.10.08-01.52.42:622][743]LogModuleManager: Shutting down and abandoning module AvfMediaEditor (216)
[2018.10.08-01.52.42:622][743]LogModuleManager: Shutting down and abandoning module Media (215)
[2018.10.08-01.52.42:622][743]LogModuleManager: Shutting down and abandoning module AndroidMediaFactory (214)
[2018.10.08-01.52.42:622][743]LogModuleManager: Shutting down and abandoning module AndroidMediaEditor (213)
[2018.10.08-01.52.42:622][743]LogModuleManager: Shutting down and abandoning module CharacterAI (212)
[2018.10.08-01.52.42:622][743]LogModuleManager: Shutting down and abandoning module SequenceRecorder (211)
[2018.10.08-01.52.42:622][743]LogModuleManager: Shutting down and abandoning module AudioCapture (210)
[2018.10.08-01.52.42:622][743]LogModuleManager: Shutting down and abandoning module SmartSnapping (209)
[2018.10.08-01.52.42:622][743]LogModuleManager: Shutting down and abandoning module SessionServices (208)
[2018.10.08-01.52.42:622][743]LogModuleManager: Shutting down and abandoning module ViewportSnapping (207)
[2018.10.08-01.52.42:622][743]LogModuleManager: Shutting down and abandoning module ViewportInteraction (206)
[2018.10.08-01.52.42:622][743]LogModuleManager: Shutting down and abandoning module LogVisualizer (205)
[2018.10.08-01.52.42:622][743]LogModuleManager: Shutting down and abandoning module GameProjectGeneration (204)
[2018.10.08-01.52.42:622][743]LogModuleManager: Shutting down and abandoning module IntroTutorials (203)
[2018.10.08-01.52.42:622][743]LogModuleManager: Shutting down and abandoning module EditorLiveStreaming (202)
[2018.10.08-01.52.42:622][743]LogModuleManager: Shutting down and abandoning module IOSPlatformEditor (201)
[2018.10.08-01.52.42:622][743]LogModuleManager: Shutting down and abandoning module HTML5PlatformEditor (200)
[2018.10.08-01.52.42:622][743]LogModuleManager: Shutting down and abandoning module AndroidDeviceDetection (199)
[2018.10.08-01.52.42:888][743]LogModuleManager: Shutting down and abandoning module AndroidPlatformEditor (198)
[2018.10.08-01.52.42:888][743]LogModuleManager: Shutting down and abandoning module IOSRuntimeSettings (197)
[2018.10.08-01.52.42:888][743]LogModuleManager: Shutting down and abandoning module AndroidRuntimeSettings (196)
[2018.10.08-01.52.42:888][743]LogModuleManager: Shutting down and abandoning module InputBindingEditor (195)
[2018.10.08-01.52.42:888][743]LogModuleManager: Shutting down and abandoning module NiagaraEditor (194)
[2018.10.08-01.52.42:888][743]LogModuleManager: Shutting down and abandoning module MergeActors (193)
[2018.10.08-01.52.42:888][743]LogModuleManager: Shutting down and abandoning module SizeMap (192)
[2018.10.08-01.52.42:888][743]LogModuleManager: Shutting down and abandoning module TreeMap (191)
[2018.10.08-01.52.42:889][743]LogModuleManager: Shutting down and abandoning module ReferenceViewer (190)
[2018.10.08-01.52.42:889][743]LogModuleManager: Shutting down and abandoning module LocalizationService (189)
[2018.10.08-01.52.42:889][743]LogModuleManager: Shutting down and abandoning module LocalizationDashboard (188)
[2018.10.08-01.52.42:889][743]LogModuleManager: Shutting down and abandoning module HardwareTargeting (187)
[2018.10.08-01.52.42:889][743]LogModuleManager: Shutting down and abandoning module DeviceProfileEditor (186)
[2018.10.08-01.52.42:889][743]LogModuleManager: Shutting down and abandoning module UndoHistory (185)
[2018.10.08-01.52.42:889][743]LogModuleManager: Shutting down and abandoning module UserFeedback (184)
[2018.10.08-01.52.42:889][743]LogModuleManager: Shutting down and abandoning module XmlParser (183)
[2018.10.08-01.52.42:889][743]LogModuleManager: Shutting down and abandoning module Blutility (182)
[2018.10.08-01.52.42:889][743]LogModuleManager: Shutting down and abandoning module ProjectTargetPlatformEditor (181)
[2018.10.08-01.52.42:889][743]LogModuleManager: Shutting down and abandoning module ProjectSettingsViewer (180)
[2018.10.08-01.52.42:889][743]LogModuleManager: Shutting down and abandoning module EditorSettingsViewer (179)
[2018.10.08-01.52.42:889][743]LogModuleManager: Shutting down and abandoning module SettingsEditor (178)
[2018.10.08-01.52.42:889][743]LogModuleManager: Shutting down and abandoning module ProjectLauncher (177)
[2018.10.08-01.52.42:889][743]LogModuleManager: Shutting down and abandoning module SessionFrontend (176)
[2018.10.08-01.52.42:889][743]LogModuleManager: Shutting down and abandoning module ProfilerClient (175)
[2018.10.08-01.52.42:889][743]LogModuleManager: Shutting down and abandoning module TargetDeviceServices (174)
[2018.10.08-01.52.42:889][743]LogModuleManager: Shutting down and abandoning module DeviceManager (173)
[2018.10.08-01.52.42:930][743]LogModuleManager: Shutting down and abandoning module AutomationController (172)
[2018.10.08-01.52.42:930][743]LogModuleManager: Shutting down and abandoning module AutomationWindow (171)
[2018.10.08-01.52.42:930][743]LogModuleManager: Shutting down and abandoning module Layers (170)
[2018.10.08-01.52.42:947][743]LogModuleManager: Shutting down and abandoning module ComponentVisualizers (169)
[2018.10.08-01.52.42:947][743]LogModuleManager: Shutting down and abandoning module DetailCustomizations (168)
[2018.10.08-01.52.42:947][743]LogModuleManager: Shutting down and abandoning module PackagesDialog (167)
[2018.10.08-01.52.42:947][743]LogModuleManager: Shutting down and abandoning module AnimGraph (166)
[2018.10.08-01.52.42:947][743]LogModuleManager: Shutting down and abandoning module Persona (165)
[2018.10.08-01.52.42:947][743]LogModuleManager: Shutting down and abandoning module Kismet (164)
[2018.10.08-01.52.42:953][743]LogModuleManager: Shutting down and abandoning module GraphEditor (163)
[2018.10.08-01.52.42:953][743]LogModuleManager: Shutting down and abandoning module ClassViewer (162)
[2018.10.08-01.52.42:953][743]LogModuleManager: Shutting down and abandoning module Toolbox (161)
[2018.10.08-01.52.42:953][743]LogModuleManager: Shutting down and abandoning module ModuleUI (160)
[2018.10.08-01.52.42:953][743]LogModuleManager: Shutting down and abandoning module MovieSceneTools (159)
[2018.10.08-01.52.42:953][743]LogModuleManager: Shutting down and abandoning module OutputLog (158)
[2018.10.08-01.52.42:953][743]LogModuleManager: Shutting down and abandoning module GammaUI (157)
[2018.10.08-01.52.42:953][743]LogModuleManager: Shutting down and abandoning module Documentation (156)
[2018.10.08-01.52.42:953][743]LogModuleManager: Shutting down and abandoning module Niagara (155)
[2018.10.08-01.52.42:953][743]LogModuleManager: Shutting down and abandoning module StreamingPauseRendering (154)
[2018.10.08-01.52.42:953][743]LogModuleManager: Shutting down and abandoning module AnalyticsET (153)
[2018.10.08-01.52.42:953][743]LogModuleManager: Shutting down and abandoning module PortalServices (152)
[2018.10.08-01.52.42:953][743]LogModuleManager: Shutting down and abandoning module PortalRpc (151)
[2018.10.08-01.52.42:953][743]LogModuleManager: Shutting down and abandoning module MessagingRpc (150)
[2018.10.08-01.52.42:953][743]LogModuleManager: Shutting down and abandoning module GameplayDebugger (149)
[2018.10.08-01.52.42:953][743]LogModuleManager: Shutting down and abandoning module AITestSuite (148)
[2018.10.08-01.52.42:953][743]LogModuleManager: Shutting down and abandoning module AIModule (147)
[2018.10.08-01.52.42:953][743]LogModuleManager: Shutting down and abandoning module ProfilerService (146)
[2018.10.08-01.52.43:083][743]LogModuleManager: Shutting down and abandoning module TaskGraph (145)
[2018.10.08-01.52.43:083][743]LogModuleManager: Shutting down and abandoning module SlateRemote (144)
[2018.10.08-01.52.43:083][743]LogModuleManager: Shutting down and abandoning module SteamVRController (143)
[2018.10.08-01.52.43:083][743]LogModuleManager: Shutting down and abandoning module SteamVR (142)
[2018.10.08-01.52.43:083][743]LogModuleManager: Shutting down and abandoning module ProceduralMeshComponentEditor (141)
[2018.10.08-01.52.43:083][743]LogModuleManager: Shutting down and abandoning module ProceduralMeshComponent (140)
[2018.10.08-01.52.43:083][743]LogModuleManager: Shutting down and abandoning module OculusLibrary (139)
[2018.10.08-01.52.43:083][743]LogModuleManager: Shutting down and abandoning module OculusInput (138)
[2018.10.08-01.52.43:083][743]LogModuleManager: Shutting down and abandoning module MobilePatchingUtils (137)
[2018.10.08-01.52.43:083][743]LogModuleManager: Shutting down and abandoning module CustomMeshComponent (136)
[2018.10.08-01.52.43:083][743]LogModuleManager: Shutting down and abandoning module CableComponent (135)
[2018.10.08-01.52.43:083][743]LogModuleManager: Shutting down and abandoning module ArchVisCharacter (134)
[2018.10.08-01.52.43:083][743]LogModuleManager: Shutting down and abandoning module MediaPlayerEditor (132)
[2018.10.08-01.52.43:083][743]LogModuleManager: Shutting down and abandoning module HTML5Networking (131)
[2018.10.08-01.52.43:084][743]LogModuleManager: Shutting down and abandoning module GeometryCacheEd (130)
[2018.10.08-01.52.43:084][743]LogModuleManager: Shutting down and abandoning module GeometryCache (129)
[2018.10.08-01.52.43:084][743]LogModuleManager: Shutting down and abandoning module AlembicLibrary (128)
[2018.10.08-01.52.43:084][743]LogModuleManager: Shutting down and abandoning module AlembicImporter (127)
[2018.10.08-01.52.43:084][743]LogModuleManager: Shutting down and abandoning module SuperSearch (126)
[2018.10.08-01.52.43:084][743]LogModuleManager: Shutting down and abandoning module SuperSearchEditor (125)
[2018.10.08-01.52.43:084][743]LogModuleManager: Shutting down and abandoning module SpeedTreeImporter (124)
[2018.10.08-01.52.43:084][743]LogModuleManager: Shutting down and abandoning module PluginBrowser (123)
[2018.10.08-01.52.43:084][743]LogModuleManager: Shutting down and abandoning module MobileLauncherProfileWizard (122)
[2018.10.08-01.52.43:084][743]LogModuleManager: Shutting down and abandoning module EpicSurvey (121)
[2018.10.08-01.52.43:084][743]LogModuleManager: Shutting down and abandoning module DesktopPlatform (120)
[2018.10.08-01.52.43:084][743]LogModuleManager: Shutting down and abandoning module VisualStudioSourceCodeAccess (119)
[2018.10.08-01.52.43:084][743]LogModuleManager: Shutting down and abandoning module UObjectPlugin (118)
[2018.10.08-01.52.43:084][743]LogModuleManager: Shutting down and abandoning module SubversionSourceControl (117)
[2018.10.08-01.52.43:084][743]LogModuleManager: Shutting down and abandoning module PerforceSourceControl (116)
[2018.10.08-01.52.43:084][743]LogModuleManager: Shutting down and abandoning module SourceControl (115)
[2018.10.08-01.52.43:084][743]LogModuleManager: Shutting down and abandoning module GitSourceControl (114)
[2018.10.08-01.52.43:084][743]LogModuleManager: Shutting down and abandoning module LightPropagationVolumeEditor (113)
[2018.10.08-01.52.43:084][743]LogModuleManager: Shutting down and abandoning module PaperTiledImporter (112)
[2018.10.08-01.52.43:084][743]LogModuleManager: Shutting down and abandoning module PaperSpriteSheetImporter (111)
[2018.10.08-01.52.43:084][743]LogModuleManager: Shutting down and abandoning module MeshPaint (110)
[2018.10.08-01.52.43:084][743]LogModuleManager: Shutting down and abandoning module PixelInspectorModule (109)
[2018.10.08-01.52.43:084][743]LogModuleManager: Shutting down and abandoning module HotReload (108)
[2018.10.08-01.52.43:085][743]LogModuleManager: Shutting down and abandoning module MainFrame (107)
[2018.10.08-01.52.43:085][743]LogModuleManager: Shutting down and abandoning module LevelEditor (106)
[2018.10.08-01.52.43:085][743]LogModuleManager: Shutting down and abandoning module ContentBrowser (105)
[2018.10.08-01.52.43:086][743]LogModuleManager: Shutting down and abandoning module Paper2DEditor (104)
[2018.10.08-01.52.43:086][743]LogModuleManager: Shutting down and abandoning module UdpMessaging (103)
[2018.10.08-01.52.43:187][743]LogModuleManager: Shutting down and abandoning module TcpMessaging (102)
[2018.10.08-01.52.43:287][743]LogModuleManager: Shutting down and abandoning module LightPropagationVolumeRuntime (101)
[2018.10.08-01.52.43:287][743]LogModuleManager: Shutting down and abandoning module Paper2D (100)
[2018.10.08-01.52.43:287][743]LogModuleManager: Shutting down and abandoning module WindowsMoviePlayer (99)
[2018.10.08-01.52.43:287][743]LogModuleManager: Shutting down and abandoning module WmfMedia (98)
[2018.10.08-01.52.43:289][743]LogModuleManager: Shutting down and abandoning module MediaAssets (97)
[2018.10.08-01.52.43:289][743]LogModuleManager: Shutting down and abandoning module GameLiveStreaming (96)
[2018.10.08-01.52.43:289][743]LogModuleManager: Shutting down and abandoning module GameplayTagsEditor (95)
[2018.10.08-01.52.43:289][743]LogModuleManager: Shutting down and abandoning module VREditor (94)
[2018.10.08-01.52.43:289][743]LogModuleManager: Shutting down and abandoning module GameplayTasksEditor (93)
[2018.10.08-01.52.43:289][743]LogModuleManager: Shutting down and abandoning module BehaviorTreeEditor (92)
[2018.10.08-01.52.43:289][743]LogModuleManager: Shutting down and abandoning module FunctionalTesting (91)
[2018.10.08-01.52.43:289][743]LogModuleManager: Shutting down and abandoning module CollisionAnalyzer (90)
[2018.10.08-01.52.43:289][743]LogModuleManager: Shutting down and abandoning module Sequencer (89)
[2018.10.08-01.52.43:289][743]LogModuleManager: Shutting down and abandoning module WorkspaceMenuStructure (88)
[2018.10.08-01.52.43:289][743]LogModuleManager: Shutting down and abandoning module MessageLog (87)
[2018.10.08-01.52.43:289][743]LogModuleManager: Shutting down and abandoning module AssetTools (86)
[2018.10.08-01.52.43:289][743]LogModuleManager: Shutting down and abandoning module UMGEditor (85)
[2018.10.08-01.52.43:289][743]LogModuleManager: Shutting down and abandoning module UMG (84)
[2018.10.08-01.52.43:289][743]LogModuleManager: Shutting down and abandoning module SlateReflector (83)
[2018.10.08-01.52.43:289][743]LogModuleManager: Shutting down and abandoning module Slate (82)
[2018.10.08-01.52.43:289][743]LogModuleManager: Shutting down and abandoning module EditorStyle (81)
[2018.10.08-01.52.43:292][743]LogModuleManager: Shutting down and abandoning module SourceCodeAccess (80)
[2018.10.08-01.52.43:292][743]LogModuleManager: Shutting down and abandoning module HeadMountedDisplay (79)
[2018.10.08-01.52.43:292][743]LogModuleManager: Shutting down and abandoning module XAudio2 (78)
[2018.10.08-01.52.43:292][743]LogModuleManager: Shutting down and abandoning module Networking (76)
[2018.10.08-01.52.43:292][743]LogModuleManager: Shutting down and abandoning module Core (75)
[2018.10.08-01.52.43:292][743]LogModuleManager: Shutting down and abandoning module DirectoryWatcher (74)
[2018.10.08-01.52.43:292][743]LogDirectoryWatcher: A directory notification for '../../../Engine/Content/' was aborted.
[2018.10.08-01.52.43:292][743]LogDirectoryWatcher: A directory notification for '../../../../../../Users/tyler/Documents/Unreal Projects/GAM495_ArtifactFour/Content/' was aborted.
[2018.10.08-01.52.43:292][743]LogDirectoryWatcher: A directory notification for '../../../Engine/Plugins/2D/Paper2D/Content/' was aborted.
[2018.10.08-01.52.43:292][743]LogModuleManager: Shutting down and abandoning module AssetRegistry (73)
[2018.10.08-01.52.43:415][743]LogModuleManager: Shutting down and abandoning module KismetCompiler (72)
[2018.10.08-01.52.43:415][743]LogModuleManager: Shutting down and abandoning module PhysXFormats (71)
[2018.10.08-01.52.43:415][743]LogModuleManager: Shutting down and abandoning module SimplygonSwarm (70)
[2018.10.08-01.52.43:415][743]LogModuleManager: Shutting down and abandoning module SimplygonMeshReduction (69)
[2018.10.08-01.52.43:415][743]LogModuleManager: Shutting down and abandoning module QuadricMeshReduction (68)
[2018.10.08-01.52.43:415][743]LogModuleManager: Shutting down and abandoning module PropertyEditor (67)
[2018.10.08-01.52.43:415][743]LogModuleManager: Shutting down and abandoning module MeshUtilities (66)
[2018.10.08-01.52.43:415][743]LogModuleManager: Shutting down and abandoning module DerivedDataCache (65)
[2018.10.08-01.52.43:471][743]LogDerivedDataCache: Shutdown
[2018.10.08-01.52.43:471][743]LogModuleManager: Shutting down and abandoning module VulkanShaderFormat (64)
[2018.10.08-01.52.43:471][743]LogModuleManager: Shutting down and abandoning module ShaderFormatOpenGL (63)
[2018.10.08-01.52.43:471][743]LogModuleManager: Shutting down and abandoning module ShaderFormatD3D (62)
[2018.10.08-01.52.43:471][743]LogModuleManager: Shutting down and abandoning module MetalShaderFormat (61)
[2018.10.08-01.52.43:471][743]LogModuleManager: Shutting down and abandoning module TextureFormatUncompressed (60)
[2018.10.08-01.52.43:471][743]LogModuleManager: Shutting down and abandoning module TextureFormatPVR (59)
[2018.10.08-01.52.43:471][743]LogModuleManager: Shutting down and abandoning module TextureFormatDXT (58)
[2018.10.08-01.52.43:471][743]LogModuleManager: Shutting down and abandoning module TextureFormatIntelISPCTexComp (57)
[2018.10.08-01.52.43:472][743]LogModuleManager: Shutting down and abandoning module ImageWrapper (56)
[2018.10.08-01.52.43:472][743]LogModuleManager: Shutting down and abandoning module TextureFormatASTC (55)
[2018.10.08-01.52.43:472][743]LogModuleManager: Shutting down and abandoning module TextureFormatAndroid (54)
[2018.10.08-01.52.43:472][743]LogModuleManager: Shutting down and abandoning module AudioFormatOpus (53)
[2018.10.08-01.52.43:472][743]LogModuleManager: Shutting down and abandoning module AudioFormatOgg (52)
[2018.10.08-01.52.43:472][743]LogModuleManager: Shutting down and abandoning module AudioFormatADPCM (51)
[2018.10.08-01.52.43:472][743]LogModuleManager: Shutting down and abandoning module LinuxTargetPlatform (50)
[2018.10.08-01.52.43:472][743]LogModuleManager: Shutting down and abandoning module LinuxServerTargetPlatform (49)
[2018.10.08-01.52.43:472][743]LogModuleManager: Shutting down and abandoning module LinuxNoEditorTargetPlatform (48)
[2018.10.08-01.52.43:472][743]LogModuleManager: Shutting down and abandoning module LinuxClientTargetPlatform (47)
[2018.10.08-01.52.43:472][743]LogModuleManager: Shutting down and abandoning module TVOSTargetPlatform (46)
[2018.10.08-01.52.43:472][743]LogModuleManager: Shutting down and abandoning module Messaging (45)
[2018.10.08-01.52.43:472][743]LogModuleManager: Shutting down and abandoning module IOSTargetPlatform (44)
[2018.10.08-01.52.43:472][743]LogModuleManager: Shutting down and abandoning module HTML5TargetPlatform (43)
[2018.10.08-01.52.43:472][743]LogModuleManager: Shutting down and abandoning module Android_PVRTCTargetPlatform (42)
[2018.10.08-01.52.43:472][743]LogModuleManager: Shutting down and abandoning module Android_MultiTargetPlatform (41)
[2018.10.08-01.52.43:472][743]LogModuleManager: Shutting down and abandoning module Android_ETC2TargetPlatform (40)
[2018.10.08-01.52.43:472][743]LogModuleManager: Shutting down and abandoning module Android_ETC1TargetPlatform (39)
[2018.10.08-01.52.43:472][743]LogModuleManager: Shutting down and abandoning module Android_DXTTargetPlatform (38)
[2018.10.08-01.52.43:472][743]LogModuleManager: Shutting down and abandoning module Android_ATCTargetPlatform (37)
[2018.10.08-01.52.43:472][743]LogModuleManager: Shutting down and abandoning module Android_ASTCTargetPlatform (36)
[2018.10.08-01.52.43:472][743]LogModuleManager: Shutting down and abandoning module AndroidTargetPlatform (35)
[2018.10.08-01.52.43:472][743]LogModuleManager: Shutting down and abandoning module WindowsTargetPlatform (34)
[2018.10.08-01.52.43:472][743]LogModuleManager: Shutting down and abandoning module WindowsServerTargetPlatform (33)
[2018.10.08-01.52.43:472][743]LogModuleManager: Shutting down and abandoning module WindowsNoEditorTargetPlatform (32)
[2018.10.08-01.52.43:472][743]LogModuleManager: Shutting down and abandoning module WindowsClientTargetPlatform (31)
[2018.10.08-01.52.43:472][743]LogModuleManager: Shutting down and abandoning module MacTargetPlatform (30)
[2018.10.08-01.52.43:472][743]LogModuleManager: Shutting down and abandoning module MacServerTargetPlatform (29)
[2018.10.08-01.52.43:472][743]LogModuleManager: Shutting down and abandoning module MacNoEditorTargetPlatform (28)
[2018.10.08-01.52.43:472][743]LogModuleManager: Shutting down and abandoning module MacClientTargetPlatform (27)
[2018.10.08-01.52.43:472][743]LogModuleManager: Shutting down and abandoning module AllDesktopTargetPlatform (26)
[2018.10.08-01.52.43:472][743]LogModuleManager: Shutting down and abandoning module TargetPlatform (25)
[2018.10.08-01.52.43:472][743]LogModuleManager: Shutting down and abandoning module InputCore (24)
[2018.10.08-01.52.43:472][743]LogModuleManager: Shutting down and abandoning module Settings (23)
[2018.10.08-01.52.43:472][743]LogModuleManager: Shutting down and abandoning module OculusRift (22)
[2018.10.08-01.52.43:472][743]LogModuleManager: Shutting down and abandoning module ExampleDeviceProfileSelector (21)
[2018.10.08-01.52.43:472][743]LogModuleManager: Shutting down and abandoning module OnlineBlueprintSupport (20)
[2018.10.08-01.52.43:472][743]LogModuleManager: Shutting down and abandoning module OnlineSubsystem (18)
[2018.10.08-01.52.43:472][743]LogOnline:Display: Unloading online subsystem: NULL
[2018.10.08-01.52.43:472][743]LogModuleManager: Shutting down and abandoning module SSL (17)
[2018.10.08-01.52.43:473][743]LogModuleManager: Shutting down and abandoning module HTTP (16)
[2018.10.08-01.52.43:473][743]LogModuleManager: Shutting down and abandoning module XMPP (15)
[2018.10.08-01.52.43:474][743]LogModuleManager: Shutting down and abandoning module TextureCompressor (14)
[2018.10.08-01.52.43:474][743]LogModuleManager: Shutting down and abandoning module ShaderCore (13)
[2018.10.08-01.52.43:474][743]LogModuleManager: Shutting down and abandoning module Landscape (12)
[2018.10.08-01.52.43:474][743]LogModuleManager: Shutting down and abandoning module SlateRHIRenderer (11)
[2018.10.08-01.52.43:475][743]LogModuleManager: Shutting down and abandoning module OpenGLDrv (10)
[2018.10.08-01.52.43:475][743]LogModuleManager: Shutting down and abandoning module D3D11RHI (9)
[2018.10.08-01.52.43:475][743]LogModuleManager: Shutting down and abandoning module AnimGraphRuntime (8)
[2018.10.08-01.52.43:475][743]LogModuleManager: Shutting down and abandoning module Renderer (7)
[2018.10.08-01.52.43:476][743]LogModuleManager: Shutting down and abandoning module Engine (6)
[2018.10.08-01.52.43:476][743]LogModuleManager: Shutting down and abandoning module CoreUObject (5)
[2018.10.08-01.52.43:476][743]LogModuleManager: Shutting down and abandoning module NetworkFile (4)
[2018.10.08-01.52.43:476][743]LogModuleManager: Shutting down and abandoning module StreamingFile (3)
[2018.10.08-01.52.43:476][743]LogModuleManager: Shutting down and abandoning module SandboxFile (2)
[2018.10.08-01.52.43:476][743]LogModuleManager: Shutting down and abandoning module PakFile (1)
[2018.10.08-01.52.43:478][743]LogExit: Exiting.
[2018.10.08-01.52.43:487][743]Log file closed, 10/07/18 21:52:43
